6238837081;0.03125;0.02795
6252040153;0.006248;0.002796
6252081004;0.006248;0.01244
6252107086;0.0625;0.004662
4297551713;0.006248;0.00795
6252042334;0.006248;0.01157
6252205701;0.006248;0.003975
6252281215;0.006248;0.02069
6252260521;0.006248;0.02386
6252064094;0.006248;0.0318
6252244519;0.03125;0.001987
6252082845;0.006248;0.004662
6252107086;0.0625;0.004662
6252244519;0.03125;0.001987
6252131803;0.03125;0.01125
6252250221;0.006248;0.003975
6252107765;0.0;0.0001554
6252193230;0.0125;0.02863
6252054293;0.02792;0.02704
6238340468;0.0625;0.03961
6252154547;0.0;0.0001554
6252026439;0.0125;0.003975
6252054293;0.02792;0.02704
6252081004;0.006248;0.01244
6252205371;0.0125;0.001554
6251994735;0.006248;0.008392
6252199230;0.006248;0.004662
6238837081;0.03125;0.02795
6239416246;0.1875;0.04773
6252146438;0.0625;0.04773
6236432122;0.05627;0.02145
6252082845;0.006248;0.004662
6252213470;0.0075;0.007767
6252154926;0.0125;0.001554
6238837081;0.03125;0.02795
6252081004;0.006248;0.01244
6251480205;0.0625;0.06213
6252205701;0.006248;0.003975
5440065394;0.03748;0.01088
6252112958;0.009369;0.004662
6252096299;0.0125;0.004662
5440065394;0.03748;0.01088
6252260521;0.006248;0.02386
6252026439;0.0125;0.003975
6252205701;0.006248;0.003975
6252281215;0.006248;0.02069
6252023131;0.03125;0.003109
6238837081;0.03125;0.02795
6252063782;0.006248;0.004349
6252064645;0.0125;0.01166
6252217379;0.0;0.0001554
6252020654;0.009369;0.01244
6252065441;0.0625;0.007767
6252174995;0.09998;0.02069
6252008056;0.006248;0.002331
6252193273;0.0625;0.1034
6252260521;0.006248;0.02386
6252278566;0.03125;0.0159
6252082131;0.009369;0.01244
6252155622;0.03125;0.01143
6252082845;0.006248;0.004662
6252204848;0.0125;0.001554
6252084432;0.006248;0.004662
6252081004;0.006248;0.01244
6252042334;0.006248;0.01157
6252251418;0.006248;0.003975
6252064094;0.006248;0.0318
6252174995;0.09998;0.02069
6252072211;0.006248;0.01244
4665892165;0.125;0.07642
6252027972;0.006248;0.002796
6238340468;0.0625;0.03961
6252027972;0.006248;0.002796
6252278566;0.03125;0.0159
6238837081;0.03125;0.02795
6252026439;0.0125;0.003975
6252099695;0.03125;0.01125
6252020654;0.009369;0.01244
6252039441;0.03125;0.02386
6252174995;0.09998;0.02069
6252193273;0.0625;0.1034
6252063782;0.006248;0.004349
6252107086;0.0625;0.004662
6252099695;0.03125;0.01125
6252064645;0.0125;0.01166
6252199230;0.006248;0.004662
1488089419;0.0625;0.0159
6252198892;0.006248;0.02069
6252237278;0.0;0.0001554
6252133421;0.0;0.0001554
6252065441;0.0625;0.007767
6252051821;0.006248;0.01157
6252038379;0.006248;0.002392
6239416246;0.1875;0.04773
6252068151;0.006248;0.003975
6252059383;0.0;0.0001554
6251994475;0.006248;0.0318
6251994475;0.006248;0.0318
6252064094;0.006248;0.0318
6252117782;0.03125;0.0159
6238837081;0.03125;0.02795
6252154926;0.0125;0.001554
6252051821;0.006248;0.01157
6252214788;0.03125;0.01125
6252023131;0.03125;0.003109
6252246950;0.006248;0.003975
6252072211;0.006248;0.01244
6239416246;0.1875;0.04773
6251480205;0.0625;0.06213
6252027972;0.006248;0.002796
6252262921;0.0625;0.007767
4297551713;0.006248;0.00795
6252060052;0.009369;0.002842
6252097319;0.00676;0.001972
6252123553;0.0;0.0001554
6252133421;0.0;0.0001554
6252081004;0.006248;0.01244
6252054293;0.02792;0.02704
6252096299;0.0125;0.004662
6252199230;0.006248;0.004662
6252277611;0.0625;0.007767
6252155622;0.03125;0.01143
6252281215;0.006248;0.02069
6252185167;0.03125;0.01125
6252260521;0.006248;0.02386
6236432122;0.05627;0.02145
6252143603;0.03125;0.0159
5960925264;0.125;0.03339
6252107765;0.0;0.0001554
6251480205;0.0625;0.06213
6252205371;0.0125;0.001554
6252023131;0.03125;0.003109
6252063782;0.006248;0.004349
6252064645;0.0125;0.01166
6252243633;0.006248;0.0318
1488089419;0.0625;0.0159
6252068151;0.006248;0.003975
6252038379;0.006248;0.002392
6252123553;0.0;0.0001554
6252244968;0.04999;0.005875
6252243633;0.006248;0.0318
6252250221;0.006248;0.003975
6252112041;0.006248;0.003975
6251994735;0.006248;0.008392
6252185167;0.03125;0.01125
6252027972;0.006248;0.002796
6252169967;0.0625;0.004662
6252204848;0.0125;0.001554
5960925264;0.125;0.03339
6252040053;0.0625;0.006218
6252097724;0.1694;0.02774
6252042334;0.006248;0.01157
6252072828;0.0;0.0001554
6252008056;0.006248;0.002331
6252064094;0.006248;0.0318
6252146438;0.0625;0.04773
6252096299;0.0125;0.004662
1488089419;0.0625;0.0159
6252123553;0.0;0.0001554
6252072828;0.0;0.0001554
5440065394;0.03748;0.01088
6252277611;0.0625;0.007767
6252107765;0.0;0.0001554
6238837081;0.03125;0.02795
6252214788;0.03125;0.01125
6252247109;0.006248;0.003975
4297551713;0.006248;0.00795
6252081084;0.0125;0.001554
5658646673;0.09375;0.02057
6252112958;0.009369;0.004662
6252277611;0.0625;0.007767
6252204848;0.0125;0.001554
6252097724;0.1694;0.02774
6252060052;0.009369;0.002842
6252199230;0.006248;0.004662
4974639465;0.0625;0.08569
6252065441;0.0625;0.007767
5028636792;0.125;0.003109
6252072828;0.0;0.0001554
6252117782;0.03125;0.0159
5658646673;0.09375;0.02057
6252247109;0.006248;0.003975
6252038379;0.006248;0.002392
6252112041;0.006248;0.003975
6252051821;0.006248;0.01157
6252097724;0.1694;0.02774
6252243574;0.04688;0.0636
6252205701;0.006248;0.003975
6252267121;0.0625;0.02386
6252040053;0.0625;0.006218
6252244519;0.03125;0.001987
6252082845;0.006248;0.004662
6252060052;0.009369;0.002842
5440065394;0.03748;0.01088
6252034706;0.006248;0.001554
6252251418;0.006248;0.003975
6252154926;0.0125;0.001554
6252009114;0.00769;0.004662
6252198892;0.006248;0.02069
6252064094;0.006248;0.0318
6252042334;0.006248;0.01157
6252193273;0.0625;0.1034
6252008056;0.006248;0.002331
6252266490;0.006248;0.02386
6252081004;0.006248;0.01244
6252051821;0.006248;0.01157
6252063782;0.006248;0.004349
6252246950;0.006248;0.003975
6252244968;0.04999;0.005875
6252054293;0.02792;0.02704
6252123553;0.0;0.0001554
6252082845;0.006248;0.004662
6252207278;0.03125;0.01125
6252112958;0.009369;0.004662
6252213470;0.0075;0.007767
6252034706;0.006248;0.001554
6252072828;0.0;0.0001554
6252042334;0.006248;0.01157
6251815474;0.006248;0.04773
6252133192;0.0625;0.01244
6252267121;0.0625;0.02386
6252115818;0.04999;0.005875
6252097319;0.00676;0.001972
6252065441;0.0625;0.007767
6251480205;0.0625;0.06213
6252169967;0.0625;0.004662
6252214788;0.03125;0.01125
6252064645;0.0125;0.01166
5310996749;0.0625;0.04791
6251994735;0.006248;0.008392
6251815474;0.006248;0.04773
6252260521;0.006248;0.02386
6252246950;0.006248;0.003975
6252059383;0.0;0.0001554
6252097724;0.1694;0.02774
6252199230;0.006248;0.004662
5440065394;0.03748;0.01088
6252185167;0.03125;0.01125
6252038379;0.006248;0.002392
6252009114;0.00769;0.004662
6252246950;0.006248;0.003975
4974639465;0.0625;0.08569
6252133192;0.0625;0.01244
6252107086;0.0625;0.004662
6252072828;0.0;0.0001554
6252059383;0.0;0.0001554
6252154547;0.0;0.0001554
6252112041;0.006248;0.003975
6252112041;0.006248;0.003975
6252097724;0.1694;0.02774
6252115818;0.04999;0.005875
6252009114;0.00769;0.004662
6252277611;0.0625;0.007767
6252185167;0.03125;0.01125
5310996749;0.0625;0.04791
6252199230;0.006248;0.004662
6252247109;0.006248;0.003975
6252042334;0.006248;0.01157
6252065740;0.04688;0.0636
6238837081;0.03125;0.02795
6252060052;0.009369;0.002842
6252246950;0.006248;0.003975
6252247109;0.006248;0.003975
6252199230;0.006248;0.004662
6252082131;0.009369;0.01244
6252204848;0.0125;0.001554
6252133192;0.0625;0.01244
6252199230;0.006248;0.004662
6252040053;0.0625;0.006218
4297551713;0.006248;0.00795
6252112958;0.009369;0.004662
4665892165;0.125;0.07642
6252133421;0.0;0.0001554
6252112958;0.009369;0.004662
6252278566;0.03125;0.0159
6252133421;0.0;0.0001554
6252081004;0.006248;0.01244
6236432122;0.05627;0.02145
6252155622;0.03125;0.01143
6252068151;0.006248;0.003975
6252123553;0.0;0.0001554
6252099695;0.03125;0.01125
6252068151;0.006248;0.003975
4974639465;0.0625;0.08569
6252072828;0.0;0.0001554
6252082131;0.009369;0.01244
6252082845;0.006248;0.004662
6252123553;0.0;0.0001554
6252244968;0.04999;0.005875
6252112041;0.006248;0.003975
5658646673;0.09375;0.02057
6252131803;0.03125;0.01125
6252193230;0.0125;0.02863
6239416246;0.1875;0.04773
6252244968;0.04999;0.005875
6252097724;0.1694;0.02774
6252096299;0.0125;0.004662
6252082131;0.009369;0.01244
6252065441;0.0625;0.007767
6251815474;0.006248;0.04773
6252112538;0.0;0.0001554
6252260521;0.006248;0.02386
6252068151;0.006248;0.003975
6252107765;0.0;0.0001554
6252072211;0.006248;0.01244
6252185167;0.03125;0.01125
6252040153;0.006248;0.002796
5310996749;0.0625;0.04791
6252068151;0.006248;0.003975
6252059383;0.0;0.0001554
6252096299;0.0125;0.004662
6252205371;0.0125;0.001554
6252112538;0.0;0.0001554
6252027972;0.006248;0.002796
6252146438;0.0625;0.04773
6252213470;0.0075;0.007767
6252278566;0.03125;0.0159
6252072211;0.006248;0.01244
6252107765;0.0;0.0001554
6252204848;0.0125;0.001554
6252107086;0.0625;0.004662
6252096299;0.0125;0.004662
6252072211;0.006248;0.01244
4974639465;0.0625;0.08569
6252277611;0.0625;0.007767
6252169967;0.0625;0.004662
6252009114;0.00769;0.004662
6252213470;0.0075;0.007767
6252042334;0.006248;0.01157
6252117782;0.03125;0.0159
6252081084;0.0125;0.001554
6252112538;0.0;0.0001554
5028636792;0.125;0.003109
6252096299;0.0125;0.004662
6252217379;0.0;0.0001554
6252065441;0.0625;0.007767
6252107765;0.0;0.0001554
6252146438;0.0625;0.04773
6252064094;0.006248;0.0318
6252133421;0.0;0.0001554
6252020654;0.009369;0.01244
6252020654;0.009369;0.01244
6252174995;0.09998;0.02069
6252217379;0.0;0.0001554
6252154926;0.0125;0.001554
6239416246;0.1875;0.04773
5310996749;0.0625;0.04791
6252065441;0.0625;0.007767
6252154926;0.0125;0.001554
6252081004;0.006248;0.01244
6251480205;0.0625;0.06213
5960925264;0.125;0.03339
5028636792;0.125;0.003109
1488089419;0.0625;0.0159
6251994475;0.006248;0.0318
6252099695;0.03125;0.01125
4665892165;0.125;0.07642
6252107765;0.0;0.0001554
6252214788;0.03125;0.01125
6252185167;0.03125;0.01125
6252107765;0.0;0.0001554
6252262921;0.0625;0.007767
6252112041;0.006248;0.003975
6252204848;0.0125;0.001554
6239416246;0.1875;0.04773
6252008056;0.006248;0.002331
6252026439;0.0125;0.003975
6252266490;0.006248;0.02386
5028636792;0.125;0.003109
6252096382;0.0125;0.004662
6252040153;0.006248;0.002796
6252008056;0.006248;0.002331
6252143603;0.03125;0.0159
6252008056;0.006248;0.002331
6252262921;0.0625;0.007767
6252064645;0.0125;0.01166
6252081084;0.0125;0.001554
6252205371;0.0125;0.001554
6252034706;0.006248;0.001554
5028636792;0.125;0.003109
4974639465;0.0625;0.08569
6252217379;0.0;0.0001554
4665892165;0.125;0.07642
6252262921;0.0625;0.007767
6252064094;0.006248;0.0318
6252068151;0.006248;0.003975
6252051821;0.006248;0.01157
6252064094;0.006248;0.0318
6252266490;0.006248;0.02386
6252237278;0.0;0.0001554
5028636792;0.125;0.003109
6252251418;0.006248;0.003975
6252112538;0.0;0.0001554
6236432122;0.05627;0.02145
6252131803;0.03125;0.01125
6252060052;0.009369;0.002842
6252040053;0.0625;0.006218
6252250221;0.006248;0.003975
5028636792;0.125;0.003109
6252023131;0.03125;0.003109
6252082845;0.006248;0.004662
6252096382;0.0125;0.004662
6252112538;0.0;0.0001554
6252112958;0.009369;0.004662
6252174995;0.09998;0.02069
6252084432;0.006248;0.004662
6252133192;0.0625;0.01244
6252038379;0.006248;0.002392
6252060052;0.009369;0.002842
6252040053;0.0625;0.006218
6252020654;0.009369;0.01244
6252026439;0.0125;0.003975
6252247109;0.006248;0.003975
6252027972;0.006248;0.002796
5440065394;0.03748;0.01088
6252072828;0.0;0.0001554
6252081084;0.0125;0.001554
6252112958;0.009369;0.004662
6252277611;0.0625;0.007767
6252084432;0.006248;0.004662
6252081084;0.0125;0.001554
6252063782;0.006248;0.004349
6252065441;0.0625;0.007767
6238340468;0.0625;0.03961
6252133192;0.0625;0.01244
6252246950;0.006248;0.003975
4297551713;0.006248;0.00795
6251815474;0.006248;0.04773
6252072828;0.0;0.0001554
6238837081;0.03125;0.02795
6252146438;0.0625;0.04773
6252154547;0.0;0.0001554
6252064645;0.0125;0.01166
6252217379;0.0;0.0001554
6252096299;0.0125;0.004662
1488089419;0.0625;0.0159
6252247109;0.006248;0.003975
5028636792;0.125;0.003109
6252217379;0.0;0.0001554
4665892165;0.125;0.07642
6238837081;0.03125;0.02795
6252133421;0.0;0.0001554
6252277611;0.0625;0.007767
6252131803;0.03125;0.01125
5658646673;0.09375;0.02057
6252277611;0.0625;0.007767
6252244519;0.03125;0.001987
6252154926;0.0125;0.001554
6252244968;0.04999;0.005875
6252081004;0.006248;0.01244
6252193230;0.0125;0.02863
6252281215;0.006248;0.02069
6252040153;0.006248;0.002796
6252154926;0.0125;0.001554
6238340468;0.0625;0.03961
6252146438;0.0625;0.04773
6252026439;0.0125;0.003975
6252154926;0.0125;0.001554
6239416246;0.1875;0.04773
6252198892;0.006248;0.02069
4974639465;0.0625;0.08569
5658646673;0.09375;0.02057
6252193273;0.0625;0.1034
6252260521;0.006248;0.02386
6252244519;0.03125;0.001987
4974639465;0.0625;0.08569
6252243574;0.04688;0.0636
6252243633;0.006248;0.0318
6252250221;0.006248;0.003975
6252115818;0.04999;0.005875
6252250221;0.006248;0.003975
6252081004;0.006248;0.01244
6252244968;0.04999;0.005875
6252027972;0.006248;0.002796
6238837081;0.03125;0.02795
6252040153;0.006248;0.002796
6252146438;0.0625;0.04773
6252027972;0.006248;0.002796
5658646673;0.09375;0.02057
6252020654;0.009369;0.01244
6252081084;0.0125;0.001554
6252097724;0.1694;0.02774
6252084432;0.006248;0.004662
6252038379;0.006248;0.002392
6252266490;0.006248;0.02386
6252060052;0.009369;0.002842
6252064645;0.0125;0.01166
6251994735;0.006248;0.008392
6252082845;0.006248;0.004662
6252060052;0.009369;0.002842
6252146438;0.0625;0.04773
6252082845;0.006248;0.004662
6252205701;0.006248;0.003975
6252278566;0.03125;0.0159
6252023131;0.03125;0.003109
6251994735;0.006248;0.008392
6252064094;0.006248;0.0318
6238340468;0.0625;0.03961
6252207278;0.03125;0.01125
6252204848;0.0125;0.001554
6252112041;0.006248;0.003975
6252051821;0.006248;0.01157
6252107765;0.0;0.0001554
6252081084;0.0125;0.001554
6252081004;0.006248;0.01244
6252072211;0.006248;0.01244
6252009114;0.00769;0.004662
6251815474;0.006248;0.04773
6251480205;0.0625;0.06213
6252193273;0.0625;0.1034
6252155622;0.03125;0.01143
6252059383;0.0;0.0001554
6252199230;0.006248;0.004662
6252082845;0.006248;0.004662
6252081004;0.006248;0.01244
6252250221;0.006248;0.003975
6251994735;0.006248;0.008392
6251480205;0.0625;0.06213
6252143603;0.03125;0.0159
6252107086;0.0625;0.004662
6252081004;0.006248;0.01244
5960925264;0.125;0.03339
6252198892;0.006248;0.02069
6252205701;0.006248;0.003975
6252205701;0.006248;0.003975
6252099695;0.03125;0.01125
6252193230;0.0125;0.02863
6252262921;0.0625;0.007767
6252112538;0.0;0.0001554
6252281215;0.006248;0.02069
4297551713;0.006248;0.00795
6252064094;0.006248;0.0318
5028636792;0.125;0.003109
5310996749;0.0625;0.04791
6252084432;0.006248;0.004662
6252112538;0.0;0.0001554
6251994475;0.006248;0.0318
6252247109;0.006248;0.003975
6252281215;0.006248;0.02069
6252072211;0.006248;0.01244
6252107086;0.0625;0.004662
6252198892;0.006248;0.02069
6252133192;0.0625;0.01244
6252205371;0.0125;0.001554
6252117782;0.03125;0.0159
6252205701;0.006248;0.003975
6252008056;0.006248;0.002331
6252237278;0.0;0.0001554
6252096299;0.0125;0.004662
6252246950;0.006248;0.003975
6252023131;0.03125;0.003109
6252204848;0.0125;0.001554
6252034706;0.006248;0.001554
6252023131;0.03125;0.003109
6252115818;0.04999;0.005875
6252064094;0.006248;0.0318
6252096299;0.0125;0.004662
6252009114;0.00769;0.004662
6252040053;0.0625;0.006218
4297551713;0.006248;0.00795
6252243633;0.006248;0.0318
6252146438;0.0625;0.04773
6252251418;0.006248;0.003975
5960925264;0.125;0.03339
6252112041;0.006248;0.003975
6252217379;0.0;0.0001554
6252262921;0.0625;0.007767
6252154926;0.0125;0.001554
6251815474;0.006248;0.04773
6252199230;0.006248;0.004662
6252097319;0.00676;0.001972
6252262921;0.0625;0.007767
6252026439;0.0125;0.003975
5658646673;0.09375;0.02057
6252193230;0.0125;0.02863
6252143603;0.03125;0.0159
1488089419;0.0625;0.0159
6252133421;0.0;0.0001554
6252207278;0.03125;0.01125
6252039441;0.03125;0.02386
6238340468;0.0625;0.03961
6252193230;0.0125;0.02863
6252250221;0.006248;0.003975
6252040053;0.0625;0.006218
6252051821;0.006248;0.01157
6252278566;0.03125;0.0159
6252267121;0.0625;0.02386
6252174995;0.09998;0.02069
6252115818;0.04999;0.005875
6252027972;0.006248;0.002796
6252112538;0.0;0.0001554
6252154926;0.0125;0.001554
6252170086;0.03125;0.0159
6252042334;0.006248;0.01157
6252213470;0.0075;0.007767
6252123553;0.0;0.0001554
6238837081;0.03125;0.02795
6252117782;0.03125;0.0159
6252099695;0.03125;0.01125
6252143603;0.03125;0.0159
6238837081;0.03125;0.02795
6252082845;0.006248;0.004662
6252193230;0.0125;0.02863
6252198892;0.006248;0.02069
6252266490;0.006248;0.02386
6252040053;0.0625;0.006218
6252193230;0.0125;0.02863
6252084432;0.006248;0.004662
6252065441;0.0625;0.007767
6252247109;0.006248;0.003975
5960925264;0.125;0.03339
4974639465;0.0625;0.08569
6252072828;0.0;0.0001554
6252213470;0.0075;0.007767
6252198892;0.006248;0.02069
5440065394;0.03748;0.01088
6252205701;0.006248;0.003975
6252143603;0.03125;0.0159
6252115818;0.04999;0.005875
6252039441;0.03125;0.02386
6252084432;0.006248;0.004662
6252205371;0.0125;0.001554
6252096299;0.0125;0.004662
6252065441;0.0625;0.007767
6252174995;0.09998;0.02069
6252205371;0.0125;0.001554
6252040153;0.006248;0.002796
6252170086;0.03125;0.0159
6252246950;0.006248;0.003975
6252260521;0.006248;0.02386
6252081084;0.0125;0.001554
6252244968;0.04999;0.005875
6252020654;0.009369;0.01244
6252034706;0.006248;0.001554
6252068151;0.006248;0.003975
6251815474;0.006248;0.04773
6252065740;0.04688;0.0636
5310996749;0.0625;0.04791
6252260521;0.006248;0.02386
6252060052;0.009369;0.002842
6252063782;0.006248;0.004349
6252246950;0.006248;0.003975
6252281215;0.006248;0.02069
6252244968;0.04999;0.005875
6252237278;0.0;0.0001554
6252023601;0.0625;0.006218
6252213470;0.0075;0.007767
6252237278;0.0;0.0001554
6252059383;0.0;0.0001554
6252213470;0.0075;0.007767
6251480205;0.0625;0.06213
6252009114;0.00769;0.004662
6252039441;0.03125;0.02386
6252260521;0.006248;0.02386
6252112041;0.006248;0.003975
6252027972;0.006248;0.002796
6252243574;0.04688;0.0636
6252097724;0.1694;0.02774
6252243633;0.006248;0.0318
6252054293;0.02792;0.02704
6252023131;0.03125;0.003109
6252081084;0.0125;0.001554
6252133421;0.0;0.0001554
6252146438;0.0625;0.04773
6236432122;0.05627;0.02145
6252097724;0.1694;0.02774
6252059383;0.0;0.0001554
6252213470;0.0075;0.007767
6252278566;0.03125;0.0159
6252204848;0.0125;0.001554
6252054293;0.02792;0.02704
6252115818;0.04999;0.005875
6252072211;0.006248;0.01244
6252082131;0.009369;0.01244
4974639465;0.0625;0.08569
6252170086;0.03125;0.0159
6252193273;0.0625;0.1034
6252023131;0.03125;0.003109
6252065441;0.0625;0.007767
6252115818;0.04999;0.005875
4297551713;0.006248;0.00795
6252112041;0.006248;0.003975
6252251418;0.006248;0.003975
6252023601;0.0625;0.006218
6252060052;0.009369;0.002842
6252115818;0.04999;0.005875
5960925264;0.125;0.03339
6252154547;0.0;0.0001554
6252112538;0.0;0.0001554
6252243633;0.006248;0.0318
6252133421;0.0;0.0001554
6252217379;0.0;0.0001554
6252123553;0.0;0.0001554
6252133421;0.0;0.0001554
6252262921;0.0625;0.007767
6252054293;0.02792;0.02704
6252155622;0.03125;0.01143
6252205371;0.0125;0.001554
6252246950;0.006248;0.003975
6252154547;0.0;0.0001554
6252205701;0.006248;0.003975
6252096299;0.0125;0.004662
6252060052;0.009369;0.002842
6252027972;0.006248;0.002796
6252243633;0.006248;0.0318
6252247109;0.006248;0.003975
6252207278;0.03125;0.01125
6252065740;0.04688;0.0636
4297551713;0.006248;0.00795
6252185167;0.03125;0.01125
6252237278;0.0;0.0001554
6252034706;0.006248;0.001554
6252217379;0.0;0.0001554
6252115818;0.04999;0.005875
6251994475;0.006248;0.0318
6252199230;0.006248;0.004662
6252117782;0.03125;0.0159
6252277611;0.0625;0.007767
6252133421;0.0;0.0001554
4297551713;0.006248;0.00795
6252096299;0.0125;0.004662
6238837081;0.03125;0.02795
5310996749;0.0625;0.04791
6252084432;0.006248;0.004662
5440065394;0.03748;0.01088
6252199230;0.006248;0.004662
6252064645;0.0125;0.01166
6252244519;0.03125;0.001987
6252039441;0.03125;0.02386
6252205371;0.0125;0.001554
6252243574;0.04688;0.0636
6252214788;0.03125;0.01125
6252205701;0.006248;0.003975
6238837081;0.03125;0.02795
6252096299;0.0125;0.004662
6252170086;0.03125;0.0159
6252023131;0.03125;0.003109
4665892165;0.125;0.07642
6252008056;0.006248;0.002331
6252133421;0.0;0.0001554
6251994475;0.006248;0.0318
5310996749;0.0625;0.04791
6252133421;0.0;0.0001554
6252097319;0.00676;0.001972
6252246950;0.006248;0.003975
6252193273;0.0625;0.1034
6252072211;0.006248;0.01244
6252051821;0.006248;0.01157
6252065740;0.04688;0.0636
6252281215;0.006248;0.02069
6252243633;0.006248;0.0318
6252193230;0.0125;0.02863
6252060052;0.009369;0.002842
6252034706;0.006248;0.001554
6252117782;0.03125;0.0159
6252009114;0.00769;0.004662
6252023131;0.03125;0.003109
6252204848;0.0125;0.001554
6252154926;0.0125;0.001554
6252154926;0.0125;0.001554
6252133192;0.0625;0.01244
6252008056;0.006248;0.002331
6252213470;0.0075;0.007767
6252051821;0.006248;0.01157
6252096299;0.0125;0.004662
4665892165;0.125;0.07642
6252213470;0.0075;0.007767
6252099695;0.03125;0.01125
6252040153;0.006248;0.002796
6252250221;0.006248;0.003975
6252027972;0.006248;0.002796
6252117782;0.03125;0.0159
6252040153;0.006248;0.002796
6252262921;0.0625;0.007767
6251994735;0.006248;0.008392
5440065394;0.03748;0.01088
6252081084;0.0125;0.001554
6252097319;0.00676;0.001972
6252064094;0.006248;0.0318
6252099695;0.03125;0.01125
6252081084;0.0125;0.001554
6239416246;0.1875;0.04773
6252143603;0.03125;0.0159
6252243574;0.04688;0.0636
6252097319;0.00676;0.001972
6252193273;0.0625;0.1034
6252133421;0.0;0.0001554
6252096299;0.0125;0.004662
6238340468;0.0625;0.03961
6252213470;0.0075;0.007767
6252123553;0.0;0.0001554
6252217379;0.0;0.0001554
6252034706;0.006248;0.001554
6252023601;0.0625;0.006218
6252133421;0.0;0.0001554
6252146438;0.0625;0.04773
4665892165;0.125;0.07642
6252193230;0.0125;0.02863
6252214788;0.03125;0.01125
5028636792;0.125;0.003109
6252146438;0.0625;0.04773
4665892165;0.125;0.07642
5440065394;0.03748;0.01088
6252115818;0.04999;0.005875
6252096299;0.0125;0.004662
6252237278;0.0;0.0001554
6252244519;0.03125;0.001987
6252174995;0.09998;0.02069
6252008056;0.006248;0.002331
4665892165;0.125;0.07642
6252064645;0.0125;0.01166
6252237278;0.0;0.0001554
6252115818;0.04999;0.005875
4974639465;0.0625;0.08569
6252082131;0.009369;0.01244
6252217379;0.0;0.0001554
6252266490;0.006248;0.02386
1488089419;0.0625;0.0159
5440065394;0.03748;0.01088
6252020654;0.009369;0.01244
6251815474;0.006248;0.04773
6252082845;0.006248;0.004662
6252117782;0.03125;0.0159
6252217379;0.0;0.0001554
6252084432;0.006248;0.004662
6252250221;0.006248;0.003975
6252097319;0.00676;0.001972
6252112958;0.009369;0.004662
6252193273;0.0625;0.1034
6252054293;0.02792;0.02704
6252251418;0.006248;0.003975
6252205371;0.0125;0.001554
6252064645;0.0125;0.01166
5960925264;0.125;0.03339
6239416246;0.1875;0.04773
6252266490;0.006248;0.02386
6252112958;0.009369;0.004662
6252266490;0.006248;0.02386
5440065394;0.03748;0.01088
5028636792;0.125;0.003109
6252205701;0.006248;0.003975
6252042334;0.006248;0.01157
6252065740;0.04688;0.0636
4974639465;0.0625;0.08569
6251480205;0.0625;0.06213
6252198892;0.006248;0.02069
6252054293;0.02792;0.02704
6251815474;0.006248;0.04773
6251480205;0.0625;0.06213
5440065394;0.03748;0.01088
6252040053;0.0625;0.006218
6252023131;0.03125;0.003109
6252207278;0.03125;0.01125
6252152926;0.006248;0.00544
6252040153;0.006248;0.002796
6252244519;0.03125;0.001987
6252097724;0.1694;0.02774
6252185167;0.03125;0.01125
6252068151;0.006248;0.003975
6252154926;0.0125;0.001554
6252123553;0.0;0.0001554
6252020654;0.009369;0.01244
6252063782;0.006248;0.004349
6238837081;0.03125;0.02795
6252097319;0.00676;0.001972
6252081084;0.0125;0.001554
6252262921;0.0625;0.007767
6252097724;0.1694;0.02774
6252169967;0.0625;0.004662
6252051821;0.006248;0.01157
6252237278;0.0;0.0001554
6252040053;0.0625;0.006218
5960925264;0.125;0.03339
6252060052;0.009369;0.002842
6252277611;0.0625;0.007767
6252023131;0.03125;0.003109
6251994475;0.006248;0.0318
6252112958;0.009369;0.004662
6252084432;0.006248;0.004662
6251480205;0.0625;0.06213
6252099695;0.03125;0.01125
6251815474;0.006248;0.04773
6252143603;0.03125;0.0159
6252278566;0.03125;0.0159
6252246950;0.006248;0.003975
6252027972;0.006248;0.002796
6252199230;0.006248;0.004662
6252115818;0.04999;0.005875
6252027972;0.006248;0.002796
5440065394;0.03748;0.01088
6252213470;0.0075;0.007767
6252081084;0.0125;0.001554
6252281215;0.006248;0.02069
6252174995;0.09998;0.02069
6252154547;0.0;0.0001554
6252281215;0.006248;0.02069
6252174995;0.09998;0.02069
6252250221;0.006248;0.003975
1488089419;0.0625;0.0159
4297551713;0.006248;0.00795
6252112538;0.0;0.0001554
6252082845;0.006248;0.004662
6252262921;0.0625;0.007767
6252107765;0.0;0.0001554
6251994475;0.006248;0.0318
6252064645;0.0125;0.01166
6252237278;0.0;0.0001554
6252081084;0.0125;0.001554
6252133421;0.0;0.0001554
6252214788;0.03125;0.01125
6252243574;0.04688;0.0636
5960925264;0.125;0.03339
6252082845;0.006248;0.004662
6252054293;0.02792;0.02704
6252023601;0.0625;0.006218
6252051821;0.006248;0.01157
6252034706;0.006248;0.001554
6252082845;0.006248;0.004662
6252027972;0.006248;0.002796
5440065394;0.03748;0.01088
6252034706;0.006248;0.001554
6252123553;0.0;0.0001554
6251815474;0.006248;0.04773
6252251418;0.006248;0.003975
6252081004;0.006248;0.01244
6252112538;0.0;0.0001554
6252054293;0.02792;0.02704
6236432122;0.05627;0.02145
6252107086;0.0625;0.004662
6252198892;0.006248;0.02069
6252155622;0.03125;0.01143
6252026439;0.0125;0.003975
5310996749;0.0625;0.04791
6252204848;0.0125;0.001554
5658646673;0.09375;0.02057
6252155622;0.03125;0.01143
6252027972;0.006248;0.002796
6252155622;0.03125;0.01143
6252034706;0.006248;0.001554
6252131803;0.03125;0.01125
6252112958;0.009369;0.004662
6252065441;0.0625;0.007767
6252214788;0.03125;0.01125
6252107086;0.0625;0.004662
6252107765;0.0;0.0001554
6252146438;0.0625;0.04773
6252112538;0.0;0.0001554
6252082131;0.009369;0.01244
6252193230;0.0125;0.02863
6252213470;0.0075;0.007767
6252243574;0.04688;0.0636
5028636792;0.125;0.003109
6251994475;0.006248;0.0318
6252063782;0.006248;0.004349
6252023601;0.0625;0.006218
6252185167;0.03125;0.01125
6252042334;0.006248;0.01157
6252262921;0.0625;0.007767
4297551713;0.006248;0.00795
6252170086;0.03125;0.0159
6252281215;0.006248;0.02069
6238837081;0.03125;0.02795
6252054293;0.02792;0.02704
6252065740;0.04688;0.0636
5440065394;0.03748;0.01088
6252081084;0.0125;0.001554
5440065394;0.03748;0.01088
6252096382;0.0125;0.004662
6252027972;0.006248;0.002796
6252260521;0.006248;0.02386
5960925264;0.125;0.03339
6252260521;0.006248;0.02386
6252042334;0.006248;0.01157
6252068151;0.006248;0.003975
6252154926;0.0125;0.001554
6252068151;0.006248;0.003975
6252097319;0.00676;0.001972
6252040153;0.006248;0.002796
6252193273;0.0625;0.1034
6252193230;0.0125;0.02863
6252023601;0.0625;0.006218
5658646673;0.09375;0.02057
6252081004;0.006248;0.01244
6252068151;0.006248;0.003975
6252042334;0.006248;0.01157
6252097724;0.1694;0.02774
6252170086;0.03125;0.0159
6252034706;0.006248;0.001554
4297551713;0.006248;0.00795
6252112538;0.0;0.0001554
6252020654;0.009369;0.01244
6251480205;0.0625;0.06213
6252243633;0.006248;0.0318
6252277611;0.0625;0.007767
5440065394;0.03748;0.01088
6252038379;0.006248;0.002392
6252034706;0.006248;0.001554
6252246950;0.006248;0.003975
6252174995;0.09998;0.02069
6252096299;0.0125;0.004662
