6252084432;0.006248;0.004662
5658646673;0.09375;0.02057
6252243574;0.04688;0.0636
6252072211;0.006248;0.01244
4974639465;0.0625;0.08569
6252039441;0.03125;0.02386
6252027972;0.006248;0.002796
6252026439;0.0125;0.003975
6252213470;0.0075;0.007767
6252096299;0.0125;0.004662
6251994735;0.006248;0.008392
5440065394;0.03748;0.01088
6252026439;0.0125;0.003975
6252170086;0.03125;0.0159
6252247109;0.006248;0.003975
6252260521;0.006248;0.02386
6252278566;0.03125;0.0159
6252038379;0.006248;0.002392
6252064094;0.006248;0.0318
6252247109;0.006248;0.003975
4297551713;0.006248;0.00795
6252072828;0.0;0.0001554
6252174995;0.09998;0.02069
6252185167;0.03125;0.01125
5658646673;0.09375;0.02057
5960925264;0.125;0.03339
5310996749;0.0625;0.04791
6238340468;0.0625;0.03961
6252185167;0.03125;0.01125
6252023601;0.0625;0.006218
6252112041;0.006248;0.003975
6252039441;0.03125;0.02386
6252246950;0.006248;0.003975
6252097724;0.1694;0.02774
6252205371;0.0125;0.001554
6252081004;0.006248;0.01244
6252267121;0.0625;0.02386
6252170086;0.03125;0.0159
6252133421;0.0;0.0001554
6252064645;0.0125;0.01166
6252205371;0.0125;0.001554
6252281215;0.006248;0.02069
6252096299;0.0125;0.004662
6252277611;0.0625;0.007767
6252026439;0.0125;0.003975
5658646673;0.09375;0.02057
5658646673;0.09375;0.02057
6252059383;0.0;0.0001554
6236432122;0.05627;0.02145
6252117782;0.03125;0.0159
6252040153;0.006248;0.002796
6252009114;0.00769;0.004662
6252205371;0.0125;0.001554
6252193273;0.0625;0.1034
6239416246;0.1875;0.04773
6252123553;0.0;0.0001554
6252260521;0.006248;0.02386
6252243633;0.006248;0.0318
4297551713;0.006248;0.00795
6252193273;0.0625;0.1034
6252112041;0.006248;0.003975
6252281215;0.006248;0.02069
6252064645;0.0125;0.01166
6252260521;0.006248;0.02386
6238340468;0.0625;0.03961
6252247109;0.006248;0.003975
6252169967;0.0625;0.004662
6252217379;0.0;0.0001554
6252040153;0.006248;0.002796
6252207278;0.03125;0.01125
6252185167;0.03125;0.01125
6252099695;0.03125;0.01125
6252266490;0.006248;0.02386
6252051821;0.006248;0.01157
6252060052;0.009369;0.002842
5960925264;0.125;0.03339
6252214788;0.03125;0.01125
6252115818;0.04999;0.005875
6252193273;0.0625;0.1034
6252099695;0.03125;0.01125
6252170086;0.03125;0.0159
5310996749;0.0625;0.04791
6252266490;0.006248;0.02386
6252038379;0.006248;0.002392
6252065740;0.04688;0.0636
6252072211;0.006248;0.01244
6252112538;0.0;0.0001554
6252199230;0.006248;0.004662
6252051821;0.006248;0.01157
6239416246;0.1875;0.04773
6252082845;0.006248;0.004662
6252123553;0.0;0.0001554
6252112041;0.006248;0.003975
6251994735;0.006248;0.008392
6238340468;0.0625;0.03961
6252072211;0.006248;0.01244
5658646673;0.09375;0.02057
6252170086;0.03125;0.0159
5028636792;0.125;0.003109
6252214788;0.03125;0.01125
6252266490;0.006248;0.02386
6252112538;0.0;0.0001554
6252250221;0.006248;0.003975
6252065740;0.04688;0.0636
6252193230;0.0125;0.02863
6252213470;0.0075;0.007767
6252247109;0.006248;0.003975
6252204848;0.0125;0.001554
6252060052;0.009369;0.002842
6252039441;0.03125;0.02386
6252170086;0.03125;0.0159
6252097319;0.00676;0.001972
6252072211;0.006248;0.01244
6252198892;0.006248;0.02069
6252112041;0.006248;0.003975
6252065441;0.0625;0.007767
6252112958;0.009369;0.004662
6252072828;0.0;0.0001554
6252193230;0.0125;0.02863
6252097724;0.1694;0.02774
6239416246;0.1875;0.04773
6252097724;0.1694;0.02774
6236432122;0.05627;0.02145
6251480205;0.0625;0.06213
1488089419;0.0625;0.0159
6251994735;0.006248;0.008392
6252107086;0.0625;0.004662
6252185167;0.03125;0.01125
6252039441;0.03125;0.02386
6252193230;0.0125;0.02863
6252217379;0.0;0.0001554
6252278566;0.03125;0.0159
6252023131;0.03125;0.003109
6252131803;0.03125;0.01125
6252008056;0.006248;0.002331
6252146438;0.0625;0.04773
5310996749;0.0625;0.04791
6252199230;0.006248;0.004662
6252112538;0.0;0.0001554
6252112538;0.0;0.0001554
6252193273;0.0625;0.1034
6252009114;0.00769;0.004662
6252267121;0.0625;0.02386
6252133192;0.0625;0.01244
6252064094;0.006248;0.0318
6252213470;0.0075;0.007767
6252204848;0.0125;0.001554
4297551713;0.006248;0.00795
6252117782;0.03125;0.0159
6252250221;0.006248;0.003975
6252042334;0.006248;0.01157
6252246950;0.006248;0.003975
6252260521;0.006248;0.02386
6252060052;0.009369;0.002842
6252027972;0.006248;0.002796
6252146438;0.0625;0.04773
6251994735;0.006248;0.008392
6252277611;0.0625;0.007767
6252251418;0.006248;0.003975
6252027972;0.006248;0.002796
6252112041;0.006248;0.003975
6252084432;0.006248;0.004662
6252082131;0.009369;0.01244
6252131803;0.03125;0.01125
5658646673;0.09375;0.02057
6252023131;0.03125;0.003109
6252117782;0.03125;0.0159
5658646673;0.09375;0.02057
5658646673;0.09375;0.02057
6239416246;0.1875;0.04773
6252193230;0.0125;0.02863
6252112958;0.009369;0.004662
6252154926;0.0125;0.001554
6252205371;0.0125;0.001554
6252205371;0.0125;0.001554
6252081084;0.0125;0.001554
6252174995;0.09998;0.02069
6252205701;0.006248;0.003975
6252152926;0.006248;0.00544
6252040153;0.006248;0.002796
4297551713;0.006248;0.00795
6252199230;0.006248;0.004662
6252244519;0.03125;0.001987
6252205371;0.0125;0.001554
6236432122;0.05627;0.02145
6252246950;0.006248;0.003975
6252243633;0.006248;0.0318
6252205701;0.006248;0.003975
6252040053;0.0625;0.006218
6252155622;0.03125;0.01143
6252250221;0.006248;0.003975
6252026439;0.0125;0.003975
6252009114;0.00769;0.004662
6252267121;0.0625;0.02386
6252262921;0.0625;0.007767
6252205701;0.006248;0.003975
6252023131;0.03125;0.003109
5440065394;0.03748;0.01088
6252246950;0.006248;0.003975
6252244519;0.03125;0.001987
6252009114;0.00769;0.004662
5028636792;0.125;0.003109
6252096299;0.0125;0.004662
6252260521;0.006248;0.02386
6251815474;0.006248;0.04773
6236432122;0.05627;0.02145
6252042334;0.006248;0.01157
6252065441;0.0625;0.007767
6252096382;0.0125;0.004662
6238837081;0.03125;0.02795
6252026439;0.0125;0.003975
6251994735;0.006248;0.008392
6252064645;0.0125;0.01166
6252154547;0.0;0.0001554
6252064094;0.006248;0.0318
6251994475;0.006248;0.0318
6251480205;0.0625;0.06213
6252244519;0.03125;0.001987
6252198892;0.006248;0.02069
6252154926;0.0125;0.001554
6252096382;0.0125;0.004662
6252207278;0.03125;0.01125
6252023131;0.03125;0.003109
6252060052;0.009369;0.002842
6252204848;0.0125;0.001554
6252174995;0.09998;0.02069
6252198892;0.006248;0.02069
6252246950;0.006248;0.003975
6252117782;0.03125;0.0159
6252023601;0.0625;0.006218
6252123553;0.0;0.0001554
6252039441;0.03125;0.02386
6252198892;0.006248;0.02069
6252112538;0.0;0.0001554
6252096299;0.0125;0.004662
6252099695;0.03125;0.01125
6252185167;0.03125;0.01125
6252064094;0.006248;0.0318
6252099695;0.03125;0.01125
6252154926;0.0125;0.001554
6252260521;0.006248;0.02386
5310996749;0.0625;0.04791
6252146438;0.0625;0.04773
6252051821;0.006248;0.01157
6252023601;0.0625;0.006218
6252099695;0.03125;0.01125
6251815474;0.006248;0.04773
6252251418;0.006248;0.003975
6252170086;0.03125;0.0159
6252174995;0.09998;0.02069
6252246950;0.006248;0.003975
6252281215;0.006248;0.02069
6252193273;0.0625;0.1034
6252027972;0.006248;0.002796
6252107765;0.0;0.0001554
5440065394;0.03748;0.01088
6252059383;0.0;0.0001554
6252262921;0.0625;0.007767
6252038379;0.006248;0.002392
6252251418;0.006248;0.003975
6252277611;0.0625;0.007767
6252112538;0.0;0.0001554
6252133192;0.0625;0.01244
6238340468;0.0625;0.03961
6252278566;0.03125;0.0159
6252112041;0.006248;0.003975
6252065740;0.04688;0.0636
6252260521;0.006248;0.02386
6252034706;0.006248;0.001554
6252027972;0.006248;0.002796
6252214788;0.03125;0.01125
6252040153;0.006248;0.002796
6252247109;0.006248;0.003975
6251815474;0.006248;0.04773
5658646673;0.09375;0.02057
6252217379;0.0;0.0001554
6252064645;0.0125;0.01166
6252054293;0.02792;0.02704
6252198892;0.006248;0.02069
6252244519;0.03125;0.001987
6252112538;0.0;0.0001554
6251994735;0.006248;0.008392
6252243574;0.04688;0.0636
6252112958;0.009369;0.004662
6252072211;0.006248;0.01244
5658646673;0.09375;0.02057
6252146438;0.0625;0.04773
6252207278;0.03125;0.01125
6252084432;0.006248;0.004662
6252020654;0.009369;0.01244
6252247109;0.006248;0.003975
6252152926;0.006248;0.00544
5440065394;0.03748;0.01088
6239416246;0.1875;0.04773
6252204848;0.0125;0.001554
4297551713;0.006248;0.00795
6252146438;0.0625;0.04773
6252267121;0.0625;0.02386
6252131803;0.03125;0.01125
6252084432;0.006248;0.004662
6252068151;0.006248;0.003975
6252246950;0.006248;0.003975
6252051821;0.006248;0.01157
6252082845;0.006248;0.004662
6252174995;0.09998;0.02069
6251480205;0.0625;0.06213
6252244968;0.04999;0.005875
6251480205;0.0625;0.06213
6252143603;0.03125;0.0159
6252097319;0.00676;0.001972
6252278566;0.03125;0.0159
6252185167;0.03125;0.01125
6239416246;0.1875;0.04773
6252204848;0.0125;0.001554
6252214788;0.03125;0.01125
1488089419;0.0625;0.0159
6251480205;0.0625;0.06213
6252072211;0.006248;0.01244
6252267121;0.0625;0.02386
6252081084;0.0125;0.001554
6252084432;0.006248;0.004662
6252155622;0.03125;0.01143
6252054293;0.02792;0.02704
6252027972;0.006248;0.002796
5960925264;0.125;0.03339
6252064094;0.006248;0.0318
6252204848;0.0125;0.001554
6252023601;0.0625;0.006218
6252277611;0.0625;0.007767
6252281215;0.006248;0.02069
6252204848;0.0125;0.001554
5028636792;0.125;0.003109
6252267121;0.0625;0.02386
6252020654;0.009369;0.01244
6252133192;0.0625;0.01244
6252246950;0.006248;0.003975
5658646673;0.09375;0.02057
6252054293;0.02792;0.02704
6252038379;0.006248;0.002392
6252081084;0.0125;0.001554
6252205371;0.0125;0.001554
6251480205;0.0625;0.06213
6252199230;0.006248;0.004662
6252059383;0.0;0.0001554
6252133192;0.0625;0.01244
6239416246;0.1875;0.04773
6252244519;0.03125;0.001987
6252213470;0.0075;0.007767
6252146438;0.0625;0.04773
6252251418;0.006248;0.003975
6252060052;0.009369;0.002842
6252207278;0.03125;0.01125
6252063782;0.006248;0.004349
5440065394;0.03748;0.01088
6252281215;0.006248;0.02069
6252193230;0.0125;0.02863
5028636792;0.125;0.003109
6252009114;0.00769;0.004662
6252026439;0.0125;0.003975
6252277611;0.0625;0.007767
6252213470;0.0075;0.007767
6252063782;0.006248;0.004349
6252243574;0.04688;0.0636
6252204848;0.0125;0.001554
6252198892;0.006248;0.02069
6252059383;0.0;0.0001554
6252244968;0.04999;0.005875
6252097724;0.1694;0.02774
4665892165;0.125;0.07642
6252112041;0.006248;0.003975
6252169967;0.0625;0.004662
6252082845;0.006248;0.004662
6252133421;0.0;0.0001554
6252123553;0.0;0.0001554
6252117782;0.03125;0.0159
6252034706;0.006248;0.001554
6252213470;0.0075;0.007767
6251480205;0.0625;0.06213
6252244968;0.04999;0.005875
6252193230;0.0125;0.02863
6252185167;0.03125;0.01125
6252112958;0.009369;0.004662
6251994475;0.006248;0.0318
6252198892;0.006248;0.02069
5658646673;0.09375;0.02057
6252204848;0.0125;0.001554
6252152926;0.006248;0.00544
6252193230;0.0125;0.02863
6252060052;0.009369;0.002842
6252123553;0.0;0.0001554
6252020654;0.009369;0.01244
6252023601;0.0625;0.006218
6252213470;0.0075;0.007767
6252204848;0.0125;0.001554
6252198892;0.006248;0.02069
6252065740;0.04688;0.0636
6252115818;0.04999;0.005875
6252096382;0.0125;0.004662
6252205371;0.0125;0.001554
6252059383;0.0;0.0001554
6252027972;0.006248;0.002796
6252081004;0.006248;0.01244
6252082131;0.009369;0.01244
6252205371;0.0125;0.001554
6252217379;0.0;0.0001554
6252081004;0.006248;0.01244
6252065740;0.04688;0.0636
6252096299;0.0125;0.004662
6252107086;0.0625;0.004662
6252112538;0.0;0.0001554
6252065740;0.04688;0.0636
6252112538;0.0;0.0001554
6252112958;0.009369;0.004662
6252170086;0.03125;0.0159
6252115818;0.04999;0.005875
6252277611;0.0625;0.007767
6252185167;0.03125;0.01125
6252112538;0.0;0.0001554
6252082131;0.009369;0.01244
6252193273;0.0625;0.1034
6252112538;0.0;0.0001554
6252199230;0.006248;0.004662
6252096299;0.0125;0.004662
6252277611;0.0625;0.007767
6252039441;0.03125;0.02386
6252097319;0.00676;0.001972
6252060052;0.009369;0.002842
6252039441;0.03125;0.02386
6252199230;0.006248;0.004662
6252217379;0.0;0.0001554
6236432122;0.05627;0.02145
6252185167;0.03125;0.01125
5440065394;0.03748;0.01088
6252064094;0.006248;0.0318
6252243574;0.04688;0.0636
6252112041;0.006248;0.003975
6252246950;0.006248;0.003975
5028636792;0.125;0.003109
6252096382;0.0125;0.004662
6252054293;0.02792;0.02704
6251480205;0.0625;0.06213
6252020654;0.009369;0.01244
6252059383;0.0;0.0001554
6252008056;0.006248;0.002331
6252131803;0.03125;0.01125
6252243574;0.04688;0.0636
6252082131;0.009369;0.01244
6252213470;0.0075;0.007767
6252146438;0.0625;0.04773
6252081084;0.0125;0.001554
6252143603;0.03125;0.0159
6251815474;0.006248;0.04773
6252082131;0.009369;0.01244
6252112958;0.009369;0.004662
6252237278;0.0;0.0001554
6252260521;0.006248;0.02386
5310996749;0.0625;0.04791
6252281215;0.006248;0.02069
6252193273;0.0625;0.1034
6252155622;0.03125;0.01143
6252065441;0.0625;0.007767
6251994475;0.006248;0.0318
6252155622;0.03125;0.01143
6252123553;0.0;0.0001554
6252250221;0.006248;0.003975
6252038379;0.006248;0.002392
6252054293;0.02792;0.02704
6252038379;0.006248;0.002392
6252193230;0.0125;0.02863
6252054293;0.02792;0.02704
6252081004;0.006248;0.01244
5960925264;0.125;0.03339
6252009114;0.00769;0.004662
6252267121;0.0625;0.02386
6252040053;0.0625;0.006218
5440065394;0.03748;0.01088
6252247109;0.006248;0.003975
6236432122;0.05627;0.02145
6252133192;0.0625;0.01244
6252205701;0.006248;0.003975
6252112538;0.0;0.0001554
6252117782;0.03125;0.0159
6252154547;0.0;0.0001554
6252243574;0.04688;0.0636
6252243633;0.006248;0.0318
6238837081;0.03125;0.02795
6252193273;0.0625;0.1034
6252051821;0.006248;0.01157
6252207278;0.03125;0.01125
6252217379;0.0;0.0001554
6252040053;0.0625;0.006218
6252039441;0.03125;0.02386
6252246950;0.006248;0.003975
6252096299;0.0125;0.004662
6252027972;0.006248;0.002796
6252117782;0.03125;0.0159
6252251418;0.006248;0.003975
6252152926;0.006248;0.00544
6252246950;0.006248;0.003975
6252042334;0.006248;0.01157
6252152926;0.006248;0.00544
6252262921;0.0625;0.007767
6252207278;0.03125;0.01125
6252008056;0.006248;0.002331
6252250221;0.006248;0.003975
6252034706;0.006248;0.001554
6252082845;0.006248;0.004662
6252244968;0.04999;0.005875
6252174995;0.09998;0.02069
4665892165;0.125;0.07642
6252199230;0.006248;0.004662
6251994475;0.006248;0.0318
6252154926;0.0125;0.001554
6252193273;0.0625;0.1034
5440065394;0.03748;0.01088
6252213470;0.0075;0.007767
6252204848;0.0125;0.001554
6252099695;0.03125;0.01125
6252040153;0.006248;0.002796
6252081004;0.006248;0.01244
6252174995;0.09998;0.02069
6252099695;0.03125;0.01125
6252060052;0.009369;0.002842
6252146438;0.0625;0.04773
6252205701;0.006248;0.003975
6252042334;0.006248;0.01157
6252267121;0.0625;0.02386
6252217379;0.0;0.0001554
6252038379;0.006248;0.002392
6252068151;0.006248;0.003975
6252169967;0.0625;0.004662
6252246950;0.006248;0.003975
6252131803;0.03125;0.01125
6252051821;0.006248;0.01157
6252154547;0.0;0.0001554
6252117782;0.03125;0.0159
6252081084;0.0125;0.001554
6252154547;0.0;0.0001554
6252039441;0.03125;0.02386
6252063782;0.006248;0.004349
6252039441;0.03125;0.02386
6252205701;0.006248;0.003975
6252244968;0.04999;0.005875
6252251418;0.006248;0.003975
6252027972;0.006248;0.002796
6252038379;0.006248;0.002392
6238837081;0.03125;0.02795
6252026439;0.0125;0.003975
6252247109;0.006248;0.003975
6239416246;0.1875;0.04773
6252042334;0.006248;0.01157
6252185167;0.03125;0.01125
6252207278;0.03125;0.01125
6252251418;0.006248;0.003975
6252237278;0.0;0.0001554
6252133421;0.0;0.0001554
6252243574;0.04688;0.0636
5310996749;0.0625;0.04791
6252020654;0.009369;0.01244
4974639465;0.0625;0.08569
1488089419;0.0625;0.0159
6252040153;0.006248;0.002796
6252117782;0.03125;0.0159
5658646673;0.09375;0.02057
6252154926;0.0125;0.001554
5658646673;0.09375;0.02057
6252154926;0.0125;0.001554
6252243633;0.006248;0.0318
6252174995;0.09998;0.02069
6252123553;0.0;0.0001554
6252117782;0.03125;0.0159
6251994735;0.006248;0.008392
6252207278;0.03125;0.01125
6252096299;0.0125;0.004662
6252247109;0.006248;0.003975
4974639465;0.0625;0.08569
6252020654;0.009369;0.01244
6252193230;0.0125;0.02863
6252244968;0.04999;0.005875
6252040053;0.0625;0.006218
6238837081;0.03125;0.02795
6252170086;0.03125;0.0159
6252081004;0.006248;0.01244
6252133421;0.0;0.0001554
6252038379;0.006248;0.002392
6238837081;0.03125;0.02795
6252193230;0.0125;0.02863
6252246950;0.006248;0.003975
5658646673;0.09375;0.02057
5028636792;0.125;0.003109
6252060052;0.009369;0.002842
6252185167;0.03125;0.01125
6252008056;0.006248;0.002331
6252262921;0.0625;0.007767
6252214788;0.03125;0.01125
6252123553;0.0;0.0001554
6239416246;0.1875;0.04773
6251815474;0.006248;0.04773
6252277611;0.0625;0.007767
6252246950;0.006248;0.003975
6252133421;0.0;0.0001554
6252260521;0.006248;0.02386
6236432122;0.05627;0.02145
6252170086;0.03125;0.0159
4297551713;0.006248;0.00795
6252251418;0.006248;0.003975
6252117782;0.03125;0.0159
6252009114;0.00769;0.004662
5440065394;0.03748;0.01088
6252281215;0.006248;0.02069
5960925264;0.125;0.03339
6252107765;0.0;0.0001554
6252023601;0.0625;0.006218
6252133192;0.0625;0.01244
6238837081;0.03125;0.02795
6252060052;0.009369;0.002842
6252065740;0.04688;0.0636
6252065740;0.04688;0.0636
6252038379;0.006248;0.002392
6252193273;0.0625;0.1034
6252213470;0.0075;0.007767
6252244519;0.03125;0.001987
6252082845;0.006248;0.004662
6252155622;0.03125;0.01143
6252237278;0.0;0.0001554
6252117782;0.03125;0.0159
6252020654;0.009369;0.01244
6252133421;0.0;0.0001554
6252198892;0.006248;0.02069
6252027972;0.006248;0.002796
6252205371;0.0125;0.001554
6252099695;0.03125;0.01125
6252112538;0.0;0.0001554
6252169967;0.0625;0.004662
6252060052;0.009369;0.002842
6252213470;0.0075;0.007767
6252278566;0.03125;0.0159
6252020654;0.009369;0.01244
5028636792;0.125;0.003109
5028636792;0.125;0.003109
6252081004;0.006248;0.01244
6252262921;0.0625;0.007767
6252243574;0.04688;0.0636
6252193230;0.0125;0.02863
6252262921;0.0625;0.007767
6252133192;0.0625;0.01244
6252040053;0.0625;0.006218
6252170086;0.03125;0.0159
6252040153;0.006248;0.002796
6252023131;0.03125;0.003109
6251994735;0.006248;0.008392
6252023131;0.03125;0.003109
6252023131;0.03125;0.003109
6252038379;0.006248;0.002392
6252115818;0.04999;0.005875
6252152926;0.006248;0.00544
1488089419;0.0625;0.0159
6252143603;0.03125;0.0159
6252027972;0.006248;0.002796
6252023601;0.0625;0.006218
6252185167;0.03125;0.01125
6252193230;0.0125;0.02863
6252205701;0.006248;0.003975
6236432122;0.05627;0.02145
6252023601;0.0625;0.006218
6252154926;0.0125;0.001554
6252107765;0.0;0.0001554
5310996749;0.0625;0.04791
6252112538;0.0;0.0001554
6252065441;0.0625;0.007767
6252064094;0.006248;0.0318
6252205371;0.0125;0.001554
6252115818;0.04999;0.005875
6252081004;0.006248;0.01244
6252020654;0.009369;0.01244
6252266490;0.006248;0.02386
4297551713;0.006248;0.00795
6252064094;0.006248;0.0318
6251815474;0.006248;0.04773
6252143603;0.03125;0.0159
6252204848;0.0125;0.001554
6252155622;0.03125;0.01143
6252237278;0.0;0.0001554
5028636792;0.125;0.003109
6252154547;0.0;0.0001554
6238340468;0.0625;0.03961
5028636792;0.125;0.003109
6252107765;0.0;0.0001554
6252260521;0.006248;0.02386
6252117782;0.03125;0.0159
6252185167;0.03125;0.01125
6252097319;0.00676;0.001972
6252244519;0.03125;0.001987
6252152926;0.006248;0.00544
6252042334;0.006248;0.01157
6252060052;0.009369;0.002842
6239416246;0.1875;0.04773
6252034706;0.006248;0.001554
6252193273;0.0625;0.1034
6252170086;0.03125;0.0159
6252123553;0.0;0.0001554
6252096299;0.0125;0.004662
6252064094;0.006248;0.0318
6252112041;0.006248;0.003975
6252099695;0.03125;0.01125
5440065394;0.03748;0.01088
6238837081;0.03125;0.02795
6252081084;0.0125;0.001554
6252107086;0.0625;0.004662
6252266490;0.006248;0.02386
6252040053;0.0625;0.006218
6252084432;0.006248;0.004662
6252081004;0.006248;0.01244
6251994735;0.006248;0.008392
6252051821;0.006248;0.01157
6252082845;0.006248;0.004662
6252020654;0.009369;0.01244
6252096299;0.0125;0.004662
6252040053;0.0625;0.006218
6252054293;0.02792;0.02704
6252072211;0.006248;0.01244
6252250221;0.006248;0.003975
6252082131;0.009369;0.01244
6252082845;0.006248;0.004662
6236432122;0.05627;0.02145
5658646673;0.09375;0.02057
6252008056;0.006248;0.002331
6252009114;0.00769;0.004662
6252023131;0.03125;0.003109
6252027972;0.006248;0.002796
6252247109;0.006248;0.003975
6239416246;0.1875;0.04773
6252082845;0.006248;0.004662
6252065740;0.04688;0.0636
6252250221;0.006248;0.003975
6252072828;0.0;0.0001554
6252278566;0.03125;0.0159
6252250221;0.006248;0.003975
6252023131;0.03125;0.003109
6252026439;0.0125;0.003975
6252207278;0.03125;0.01125
6252170086;0.03125;0.0159
5310996749;0.0625;0.04791
6252096382;0.0125;0.004662
6252065441;0.0625;0.007767
6252199230;0.006248;0.004662
6252096299;0.0125;0.004662
6251994475;0.006248;0.0318
6252099695;0.03125;0.01125
6252009114;0.00769;0.004662
6252099695;0.03125;0.01125
6252054293;0.02792;0.02704
6252243633;0.006248;0.0318
6252009114;0.00769;0.004662
6252082131;0.009369;0.01244
6252260521;0.006248;0.02386
6252112041;0.006248;0.003975
6252133192;0.0625;0.01244
5028636792;0.125;0.003109
6252123553;0.0;0.0001554
6252185167;0.03125;0.01125
6252217379;0.0;0.0001554
6252244968;0.04999;0.005875
1488089419;0.0625;0.0159
6251815474;0.006248;0.04773
6238340468;0.0625;0.03961
6252027972;0.006248;0.002796
6252068151;0.006248;0.003975
6252082131;0.009369;0.01244
6252040053;0.0625;0.006218
6252059383;0.0;0.0001554
6252084432;0.006248;0.004662
6252060052;0.009369;0.002842
4974639465;0.0625;0.08569
6252063782;0.006248;0.004349
6252064094;0.006248;0.0318
6252027972;0.006248;0.002796
6238340468;0.0625;0.03961
6252072828;0.0;0.0001554
6252250221;0.006248;0.003975
6252027972;0.006248;0.002796
6252193230;0.0125;0.02863
5310996749;0.0625;0.04791
6252247109;0.006248;0.003975
6252051821;0.006248;0.01157
6252207278;0.03125;0.01125
6252205371;0.0125;0.001554
6252054293;0.02792;0.02704
6252251418;0.006248;0.003975
1488089419;0.0625;0.0159
6252133192;0.0625;0.01244
6252020654;0.009369;0.01244
6252266490;0.006248;0.02386
6252217379;0.0;0.0001554
6252112958;0.009369;0.004662
6252064094;0.006248;0.0318
6252185167;0.03125;0.01125
6252063782;0.006248;0.004349
6252059383;0.0;0.0001554
6252170086;0.03125;0.0159
6252042334;0.006248;0.01157
6252023131;0.03125;0.003109
6252266490;0.006248;0.02386
5658646673;0.09375;0.02057
6252246950;0.006248;0.003975
6252204848;0.0125;0.001554
6252237278;0.0;0.0001554
6252205701;0.006248;0.003975
6251815474;0.006248;0.04773
6252068151;0.006248;0.003975
6252199230;0.006248;0.004662
6252154926;0.0125;0.001554
6252193273;0.0625;0.1034
6252205701;0.006248;0.003975
6252143603;0.03125;0.0159
6252038379;0.006248;0.002392
6252205701;0.006248;0.003975
6252278566;0.03125;0.0159
6252143603;0.03125;0.0159
4974639465;0.0625;0.08569
6252084432;0.006248;0.004662
6252097319;0.00676;0.001972
6251815474;0.006248;0.04773
6252034706;0.006248;0.001554
6252063782;0.006248;0.004349
6252096299;0.0125;0.004662
6252112958;0.009369;0.004662
6252063782;0.006248;0.004349
4974639465;0.0625;0.08569
6252174995;0.09998;0.02069
6252277611;0.0625;0.007767
6252034706;0.006248;0.001554
6252107086;0.0625;0.004662
6252170086;0.03125;0.0159
6252213470;0.0075;0.007767
6252097319;0.00676;0.001972
6252243574;0.04688;0.0636
6252042334;0.006248;0.01157
6252063782;0.006248;0.004349
6252155622;0.03125;0.01143
6252214788;0.03125;0.01125
6252213470;0.0075;0.007767
6252099695;0.03125;0.01125
6252027972;0.006248;0.002796
6252042334;0.006248;0.01157
6252152926;0.006248;0.00544
4297551713;0.006248;0.00795
6252154926;0.0125;0.001554
6236432122;0.05627;0.02145
6252217379;0.0;0.0001554
6252082131;0.009369;0.01244
6252096299;0.0125;0.004662
6252243574;0.04688;0.0636
6252205371;0.0125;0.001554
6252213470;0.0075;0.007767
6252107086;0.0625;0.004662
6252281215;0.006248;0.02069
6252099695;0.03125;0.01125
6252064645;0.0125;0.01166
6252065740;0.04688;0.0636
5310996749;0.0625;0.04791
6252146438;0.0625;0.04773
6252174995;0.09998;0.02069
6252023601;0.0625;0.006218
6252170086;0.03125;0.0159
6252133421;0.0;0.0001554
6252063782;0.006248;0.004349
6252026439;0.0125;0.003975
6252027972;0.006248;0.002796
6252107765;0.0;0.0001554
5440065394;0.03748;0.01088
6251994475;0.006248;0.0318
6239416246;0.1875;0.04773
6252185167;0.03125;0.01125
6252193230;0.0125;0.02863
6252281215;0.006248;0.02069
1488089419;0.0625;0.0159
6252027972;0.006248;0.002796
6252060052;0.009369;0.002842
5658646673;0.09375;0.02057
6252207278;0.03125;0.01125
6252243633;0.006248;0.0318
6252064645;0.0125;0.01166
5960925264;0.125;0.03339
6252260521;0.006248;0.02386
6252237278;0.0;0.0001554
6252143603;0.03125;0.0159
6252020654;0.009369;0.01244
6252247109;0.006248;0.003975
6252193273;0.0625;0.1034
6252023601;0.0625;0.006218
6252081084;0.0125;0.001554
6252185167;0.03125;0.01125
6252096299;0.0125;0.004662
6252027972;0.006248;0.002796
6252260521;0.006248;0.02386
6252185167;0.03125;0.01125
6252042334;0.006248;0.01157
6252260521;0.006248;0.02386
6252281215;0.006248;0.02069
6252133192;0.0625;0.01244
6252040053;0.0625;0.006218
6252099695;0.03125;0.01125
6252246950;0.006248;0.003975
6252112538;0.0;0.0001554
5658646673;0.09375;0.02057
6252131803;0.03125;0.01125
6252112041;0.006248;0.003975
6252112958;0.009369;0.004662
6252198892;0.006248;0.02069
6252131803;0.03125;0.01125
6252084432;0.006248;0.004662
6252198892;0.006248;0.02069
6239416246;0.1875;0.04773
6252097319;0.00676;0.001972
4974639465;0.0625;0.08569
4665892165;0.125;0.07642
6252204848;0.0125;0.001554
6252064094;0.006248;0.0318
6252260521;0.006248;0.02386
6252097319;0.00676;0.001972
6252112041;0.006248;0.003975
6252064645;0.0125;0.01166
6252154547;0.0;0.0001554
6252131803;0.03125;0.01125
6252267121;0.0625;0.02386
6252082131;0.009369;0.01244
6252065740;0.04688;0.0636
6252243574;0.04688;0.0636
6236432122;0.05627;0.02145
6252244968;0.04999;0.005875
6252023601;0.0625;0.006218
6252277611;0.0625;0.007767
5310996749;0.0625;0.04791
6252123553;0.0;0.0001554
6252247109;0.006248;0.003975
6252193230;0.0125;0.02863
6252112958;0.009369;0.004662
6251815474;0.006248;0.04773
6252115818;0.04999;0.005875
4297551713;0.006248;0.00795
6252063782;0.006248;0.004349
4974639465;0.0625;0.08569
6252115818;0.04999;0.005875
6252207278;0.03125;0.01125
6252205701;0.006248;0.003975
6252059383;0.0;0.0001554
6252081004;0.006248;0.01244
6252204848;0.0125;0.001554
6252096299;0.0125;0.004662
6252243574;0.04688;0.0636
6252051821;0.006248;0.01157
6252026439;0.0125;0.003975
6252205371;0.0125;0.001554
6252243633;0.006248;0.0318
5310996749;0.0625;0.04791
5440065394;0.03748;0.01088
6252244519;0.03125;0.001987
6252237278;0.0;0.0001554
6252065441;0.0625;0.007767
6252174995;0.09998;0.02069
6252065441;0.0625;0.007767
6252064094;0.006248;0.0318
6252099695;0.03125;0.01125
6252185167;0.03125;0.01125
6252112538;0.0;0.0001554
6252243633;0.006248;0.0318
6252096299;0.0125;0.004662
6252251418;0.006248;0.003975
6252065740;0.04688;0.0636
6252117782;0.03125;0.0159
6252026439;0.0125;0.003975
6252244519;0.03125;0.001987
6251480205;0.0625;0.06213
6252204848;0.0125;0.001554
6252143603;0.03125;0.0159
6252198892;0.006248;0.02069
6252099695;0.03125;0.01125
6252143603;0.03125;0.0159
6252193230;0.0125;0.02863
6252123553;0.0;0.0001554
6252060052;0.009369;0.002842
6252082131;0.009369;0.01244
6252155622;0.03125;0.01143
1488089419;0.0625;0.0159
6252096299;0.0125;0.004662
6252064094;0.006248;0.0318
6252277611;0.0625;0.007767
6252040053;0.0625;0.006218
6252054293;0.02792;0.02704
4974639465;0.0625;0.08569
6252008056;0.006248;0.002331
6252169967;0.0625;0.004662
6252064645;0.0125;0.01166
6252072828;0.0;0.0001554
6252277611;0.0625;0.007767
6252213470;0.0075;0.007767
6252027972;0.006248;0.002796
6252267121;0.0625;0.02386
6252251418;0.006248;0.003975
