6252039441;0.03125;0.02386
6252170086;0.03125;0.0159
5960925264;0.125;0.03339
6239416246;0.1875;0.04773
6252251418;0.006248;0.003975
6252082845;0.006248;0.004662
6252155622;0.03125;0.01143
6252237278;0.0;0.0001554
6252155622;0.03125;0.01143
6252199230;0.006248;0.004662
6252115818;0.04999;0.005875
6252244968;0.04999;0.005875
6252154547;0.0;0.0001554
6251994475;0.006248;0.0318
6252146438;0.0625;0.04773
6252193273;0.0625;0.1034
6252243574;0.04688;0.0636
6252152926;0.006248;0.00544
6252247109;0.006248;0.003975
6252214788;0.03125;0.01125
6252038379;0.006248;0.002392
6252155622;0.03125;0.01143
6252082845;0.006248;0.004662
5310996749;0.0625;0.04791
6252099695;0.03125;0.01125
4665892165;0.125;0.07642
6252266490;0.006248;0.02386
1488089419;0.0625;0.0159
5310996749;0.0625;0.04791
6252059383;0.0;0.0001554
6252027972;0.006248;0.002796
6252038379;0.006248;0.002392
6252143603;0.03125;0.0159
6252213470;0.0075;0.007767
6252023601;0.0625;0.006218
6252040053;0.0625;0.006218
6252154547;0.0;0.0001554
4665892165;0.125;0.07642
6252112538;0.0;0.0001554
6251815474;0.006248;0.04773
6238837081;0.03125;0.02795
6252082131;0.009369;0.01244
6252107765;0.0;0.0001554
6252217379;0.0;0.0001554
4974639465;0.0625;0.08569
6252146438;0.0625;0.04773
6252243574;0.04688;0.0636
6238340468;0.0625;0.03961
6252152926;0.006248;0.00544
6252081084;0.0125;0.001554
1488089419;0.0625;0.0159
4297551713;0.006248;0.00795
4665892165;0.125;0.07642
6252185167;0.03125;0.01125
6252038379;0.006248;0.002392
6252267121;0.0625;0.02386
4665892165;0.125;0.07642
6252023131;0.03125;0.003109
6252217379;0.0;0.0001554
6252064645;0.0125;0.01166
6252213470;0.0075;0.007767
6252097319;0.00676;0.001972
6252154547;0.0;0.0001554
6252023131;0.03125;0.003109
6252205371;0.0125;0.001554
6252199230;0.006248;0.004662
6252112538;0.0;0.0001554
6252217379;0.0;0.0001554
6238340468;0.0625;0.03961
6251815474;0.006248;0.04773
6252123553;0.0;0.0001554
6252097319;0.00676;0.001972
6252097724;0.1694;0.02774
6252065740;0.04688;0.0636
5658646673;0.09375;0.02057
6252143603;0.03125;0.0159
6238837081;0.03125;0.02795
6251480205;0.0625;0.06213
6252193230;0.0125;0.02863
6252107086;0.0625;0.004662
6252064645;0.0125;0.01166
6252065740;0.04688;0.0636
6252146438;0.0625;0.04773
6238340468;0.0625;0.03961
6252267121;0.0625;0.02386
6252154926;0.0125;0.001554
6252068151;0.006248;0.003975
6252063782;0.006248;0.004349
6238340468;0.0625;0.03961
6252096382;0.0125;0.004662
6252131803;0.03125;0.01125
6252097319;0.00676;0.001972
6252059383;0.0;0.0001554
6239416246;0.1875;0.04773
6252051821;0.006248;0.01157
6252133421;0.0;0.0001554
6252277611;0.0625;0.007767
6252174995;0.09998;0.02069
6252278566;0.03125;0.0159
6252038379;0.006248;0.002392
6252133192;0.0625;0.01244
6236432122;0.05627;0.02145
6252072828;0.0;0.0001554
6252064645;0.0125;0.01166
6252155622;0.03125;0.01143
6252020654;0.009369;0.01244
6252174995;0.09998;0.02069
6252199230;0.006248;0.004662
6252072211;0.006248;0.01244
6252246950;0.006248;0.003975
6239416246;0.1875;0.04773
6252133192;0.0625;0.01244
6252082131;0.009369;0.01244
6252068151;0.006248;0.003975
6252063782;0.006248;0.004349
6252040153;0.006248;0.002796
6252097319;0.00676;0.001972
6251815474;0.006248;0.04773
6252099695;0.03125;0.01125
6252027972;0.006248;0.002796
6238340468;0.0625;0.03961
6252009114;0.00769;0.004662
6252217379;0.0;0.0001554
6252072828;0.0;0.0001554
6252266490;0.006248;0.02386
6252251418;0.006248;0.003975
6252193273;0.0625;0.1034
6252251418;0.006248;0.003975
6252123553;0.0;0.0001554
6252262921;0.0625;0.007767
5028636792;0.125;0.003109
6251994475;0.006248;0.0318
6252082131;0.009369;0.01244
5440065394;0.03748;0.01088
6252250221;0.006248;0.003975
6252169967;0.0625;0.004662
6252198892;0.006248;0.02069
6252243574;0.04688;0.0636
6252068151;0.006248;0.003975
6252217379;0.0;0.0001554
6252099695;0.03125;0.01125
6252262921;0.0625;0.007767
6252251418;0.006248;0.003975
6252152926;0.006248;0.00544
6252266490;0.006248;0.02386
6252064645;0.0125;0.01166
6252039441;0.03125;0.02386
6252193273;0.0625;0.1034
6252040153;0.006248;0.002796
6252023131;0.03125;0.003109
6252064645;0.0125;0.01166
6252237278;0.0;0.0001554
6252199230;0.006248;0.004662
6252060052;0.009369;0.002842
6252133192;0.0625;0.01244
6252112958;0.009369;0.004662
6252060052;0.009369;0.002842
6252034706;0.006248;0.001554
6252038379;0.006248;0.002392
6252277611;0.0625;0.007767
6252213470;0.0075;0.007767
6252207278;0.03125;0.01125
4974639465;0.0625;0.08569
6239416246;0.1875;0.04773
6252112538;0.0;0.0001554
6252040153;0.006248;0.002796
6252059383;0.0;0.0001554
6252115818;0.04999;0.005875
6252262921;0.0625;0.007767
6239416246;0.1875;0.04773
6252064645;0.0125;0.01166
5658646673;0.09375;0.02057
6252072211;0.006248;0.01244
6252246950;0.006248;0.003975
6252204848;0.0125;0.001554
6252131803;0.03125;0.01125
6252065441;0.0625;0.007767
6252097319;0.00676;0.001972
6252107765;0.0;0.0001554
6252107086;0.0625;0.004662
6252034706;0.006248;0.001554
6252020654;0.009369;0.01244
4665892165;0.125;0.07642
6252064645;0.0125;0.01166
6252097724;0.1694;0.02774
6252244968;0.04999;0.005875
6252107086;0.0625;0.004662
6252040053;0.0625;0.006218
6238340468;0.0625;0.03961
6252042334;0.006248;0.01157
5960925264;0.125;0.03339
4974639465;0.0625;0.08569
6252039441;0.03125;0.02386
6252081004;0.006248;0.01244
6252123553;0.0;0.0001554
6252082131;0.009369;0.01244
6252068151;0.006248;0.003975
6252193230;0.0125;0.02863
6252064094;0.006248;0.0318
6252185167;0.03125;0.01125
6252034706;0.006248;0.001554
6252169967;0.0625;0.004662
6252260521;0.006248;0.02386
6252039441;0.03125;0.02386
6238340468;0.0625;0.03961
6252237278;0.0;0.0001554
6252112538;0.0;0.0001554
6252277611;0.0625;0.007767
6252246950;0.006248;0.003975
6252064645;0.0125;0.01166
6252082131;0.009369;0.01244
6252131803;0.03125;0.01125
6252081004;0.006248;0.01244
6252112958;0.009369;0.004662
6252072828;0.0;0.0001554
6252027972;0.006248;0.002796
6252059383;0.0;0.0001554
6252096382;0.0125;0.004662
6252107086;0.0625;0.004662
6252152926;0.006248;0.00544
6252039441;0.03125;0.02386
6252133192;0.0625;0.01244
6252096299;0.0125;0.004662
4297551713;0.006248;0.00795
6252081084;0.0125;0.001554
5310996749;0.0625;0.04791
6252133421;0.0;0.0001554
4297551713;0.006248;0.00795
6252205371;0.0125;0.001554
6251994735;0.006248;0.008392
6252064094;0.006248;0.0318
6252123553;0.0;0.0001554
6252084432;0.006248;0.004662
6252038379;0.006248;0.002392
6252097724;0.1694;0.02774
6252081084;0.0125;0.001554
6252027972;0.006248;0.002796
6236432122;0.05627;0.02145
6252251418;0.006248;0.003975
6252244968;0.04999;0.005875
6252204848;0.0125;0.001554
6251815474;0.006248;0.04773
6252237278;0.0;0.0001554
6252072828;0.0;0.0001554
6252082131;0.009369;0.01244
4974639465;0.0625;0.08569
6252112538;0.0;0.0001554
5658646673;0.09375;0.02057
6252244968;0.04999;0.005875
6252042334;0.006248;0.01157
6252207278;0.03125;0.01125
6252051821;0.006248;0.01157
6252152926;0.006248;0.00544
6252251418;0.006248;0.003975
6252237278;0.0;0.0001554
6252027972;0.006248;0.002796
6252193273;0.0625;0.1034
6252143603;0.03125;0.0159
5028636792;0.125;0.003109
6252246950;0.006248;0.003975
6239416246;0.1875;0.04773
6252072211;0.006248;0.01244
6252040053;0.0625;0.006218
6252204848;0.0125;0.001554
6252096382;0.0125;0.004662
6252040153;0.006248;0.002796
6236432122;0.05627;0.02145
6252072828;0.0;0.0001554
6252059383;0.0;0.0001554
5310996749;0.0625;0.04791
6252084432;0.006248;0.004662
6252023601;0.0625;0.006218
6252064645;0.0125;0.01166
6252115818;0.04999;0.005875
6252082131;0.009369;0.01244
5440065394;0.03748;0.01088
6252262921;0.0625;0.007767
6252009114;0.00769;0.004662
6252065441;0.0625;0.007767
6252207278;0.03125;0.01125
6251815474;0.006248;0.04773
6252040053;0.0625;0.006218
6252081004;0.006248;0.01244
5658646673;0.09375;0.02057
6252131803;0.03125;0.01125
6252205701;0.006248;0.003975
5440065394;0.03748;0.01088
6252027972;0.006248;0.002796
5658646673;0.09375;0.02057
6252040053;0.0625;0.006218
6252060052;0.009369;0.002842
6252169967;0.0625;0.004662
6252205701;0.006248;0.003975
6252064094;0.006248;0.0318
6252112041;0.006248;0.003975
6252133421;0.0;0.0001554
4974639465;0.0625;0.08569
6252039441;0.03125;0.02386
6252112538;0.0;0.0001554
6252097724;0.1694;0.02774
6252281215;0.006248;0.02069
6252063782;0.006248;0.004349
6252237278;0.0;0.0001554
6252059383;0.0;0.0001554
6252237278;0.0;0.0001554
6252009114;0.00769;0.004662
6252262921;0.0625;0.007767
5440065394;0.03748;0.01088
6252072828;0.0;0.0001554
6252064645;0.0125;0.01166
6251480205;0.0625;0.06213
4665892165;0.125;0.07642
6252072828;0.0;0.0001554
4665892165;0.125;0.07642
6252084432;0.006248;0.004662
4297551713;0.006248;0.00795
6252023131;0.03125;0.003109
6252064645;0.0125;0.01166
4974639465;0.0625;0.08569
4297551713;0.006248;0.00795
6252262921;0.0625;0.007767
6252072211;0.006248;0.01244
6252243633;0.006248;0.0318
6252213470;0.0075;0.007767
6252250221;0.006248;0.003975
6252072828;0.0;0.0001554
6252213470;0.0075;0.007767
6252243574;0.04688;0.0636
6252198892;0.006248;0.02069
6238837081;0.03125;0.02795
6252133192;0.0625;0.01244
6252040053;0.0625;0.006218
6252115818;0.04999;0.005875
6252063782;0.006248;0.004349
1488089419;0.0625;0.0159
4665892165;0.125;0.07642
6252155622;0.03125;0.01143
6252008056;0.006248;0.002331
6251480205;0.0625;0.06213
1488089419;0.0625;0.0159
6252112041;0.006248;0.003975
6252097724;0.1694;0.02774
6252155622;0.03125;0.01143
6252214788;0.03125;0.01125
6252097724;0.1694;0.02774
6252038379;0.006248;0.002392
5310996749;0.0625;0.04791
5960925264;0.125;0.03339
1488089419;0.0625;0.0159
6252112041;0.006248;0.003975
6252097319;0.00676;0.001972
6252096299;0.0125;0.004662
6252060052;0.009369;0.002842
6251994735;0.006248;0.008392
6252198892;0.006248;0.02069
6252099695;0.03125;0.01125
5310996749;0.0625;0.04791
6252107086;0.0625;0.004662
6251994475;0.006248;0.0318
6251480205;0.0625;0.06213
6252059383;0.0;0.0001554
5960925264;0.125;0.03339
6252023131;0.03125;0.003109
6252072828;0.0;0.0001554
6252096299;0.0125;0.004662
6252193230;0.0125;0.02863
4297551713;0.006248;0.00795
6252243633;0.006248;0.0318
5658646673;0.09375;0.02057
6252107765;0.0;0.0001554
6252020654;0.009369;0.01244
4974639465;0.0625;0.08569
6252143603;0.03125;0.0159
6252131803;0.03125;0.01125
6252155622;0.03125;0.01143
6251480205;0.0625;0.06213
6252059383;0.0;0.0001554
6252205371;0.0125;0.001554
6252204848;0.0125;0.001554
6252251418;0.006248;0.003975
6251994735;0.006248;0.008392
6252096382;0.0125;0.004662
6252084432;0.006248;0.004662
6252023601;0.0625;0.006218
6252170086;0.03125;0.0159
6252008056;0.006248;0.002331
6252214788;0.03125;0.01125
6252008056;0.006248;0.002331
6252152926;0.006248;0.00544
6252040053;0.0625;0.006218
6252040153;0.006248;0.002796
6252246950;0.006248;0.003975
6252082131;0.009369;0.01244
5028636792;0.125;0.003109
6252107086;0.0625;0.004662
6252207278;0.03125;0.01125
6252146438;0.0625;0.04773
6252039441;0.03125;0.02386
6252154926;0.0125;0.001554
6252034706;0.006248;0.001554
6252143603;0.03125;0.0159
6252115818;0.04999;0.005875
6236432122;0.05627;0.02145
6252023601;0.0625;0.006218
6252107086;0.0625;0.004662
6252237278;0.0;0.0001554
6251480205;0.0625;0.06213
6252213470;0.0075;0.007767
6252059383;0.0;0.0001554
6252009114;0.00769;0.004662
6252096299;0.0125;0.004662
6252277611;0.0625;0.007767
6252278566;0.03125;0.0159
6252143603;0.03125;0.0159
6252278566;0.03125;0.0159
6252214788;0.03125;0.01125
6252204848;0.0125;0.001554
6252198892;0.006248;0.02069
6252084432;0.006248;0.004662
6252027972;0.006248;0.002796
5440065394;0.03748;0.01088
6252237278;0.0;0.0001554
6252064094;0.006248;0.0318
6252143603;0.03125;0.0159
6252081084;0.0125;0.001554
6252246950;0.006248;0.003975
6252063782;0.006248;0.004349
6252174995;0.09998;0.02069
6252217379;0.0;0.0001554
6252133421;0.0;0.0001554
6252214788;0.03125;0.01125
6252065441;0.0625;0.007767
6252133192;0.0625;0.01244
6252040153;0.006248;0.002796
6251994475;0.006248;0.0318
6238340468;0.0625;0.03961
6252154547;0.0;0.0001554
6252174995;0.09998;0.02069
6252008056;0.006248;0.002331
6252214788;0.03125;0.01125
6252112958;0.009369;0.004662
6252250221;0.006248;0.003975
6252107086;0.0625;0.004662
4974639465;0.0625;0.08569
6252266490;0.006248;0.02386
6252096299;0.0125;0.004662
6252193230;0.0125;0.02863
4665892165;0.125;0.07642
6252266490;0.006248;0.02386
6252060052;0.009369;0.002842
5028636792;0.125;0.003109
1488089419;0.0625;0.0159
6252152926;0.006248;0.00544
6252123553;0.0;0.0001554
6252082131;0.009369;0.01244
6252097319;0.00676;0.001972
6252084432;0.006248;0.004662
6252020654;0.009369;0.01244
5960925264;0.125;0.03339
6252009114;0.00769;0.004662
6252081004;0.006248;0.01244
6252237278;0.0;0.0001554
6252198892;0.006248;0.02069
6252198892;0.006248;0.02069
6252072211;0.006248;0.01244
6252112041;0.006248;0.003975
6252081004;0.006248;0.01244
6252064645;0.0125;0.01166
6252237278;0.0;0.0001554
6252170086;0.03125;0.0159
6252115818;0.04999;0.005875
6252072828;0.0;0.0001554
6252096299;0.0125;0.004662
6252081004;0.006248;0.01244
6252123553;0.0;0.0001554
1488089419;0.0625;0.0159
6252246950;0.006248;0.003975
5028636792;0.125;0.003109
6252112041;0.006248;0.003975
6252065441;0.0625;0.007767
6252059383;0.0;0.0001554
6252198892;0.006248;0.02069
6252064645;0.0125;0.01166
6252155622;0.03125;0.01143
6252243633;0.006248;0.0318
6252027972;0.006248;0.002796
6252064645;0.0125;0.01166
6252266490;0.006248;0.02386
6252205701;0.006248;0.003975
6252237278;0.0;0.0001554
6252244968;0.04999;0.005875
6252026439;0.0125;0.003975
6252185167;0.03125;0.01125
6252251418;0.006248;0.003975
6252082845;0.006248;0.004662
6252072828;0.0;0.0001554
6252251418;0.006248;0.003975
6251480205;0.0625;0.06213
6252205701;0.006248;0.003975
6252205701;0.006248;0.003975
5658646673;0.09375;0.02057
6252267121;0.0625;0.02386
6252193273;0.0625;0.1034
6252065441;0.0625;0.007767
6252193230;0.0125;0.02863
6252133421;0.0;0.0001554
6252039441;0.03125;0.02386
6252154926;0.0125;0.001554
6252243633;0.006248;0.0318
6252107086;0.0625;0.004662
6252072828;0.0;0.0001554
6252039441;0.03125;0.02386
6252155622;0.03125;0.01143
6252112041;0.006248;0.003975
6236432122;0.05627;0.02145
6252112958;0.009369;0.004662
6252063782;0.006248;0.004349
6252278566;0.03125;0.0159
6252059383;0.0;0.0001554
6252060052;0.009369;0.002842
6252143603;0.03125;0.0159
6251994735;0.006248;0.008392
6252267121;0.0625;0.02386
6252072828;0.0;0.0001554
6252051821;0.006248;0.01157
6252155622;0.03125;0.01143
6239416246;0.1875;0.04773
6252169967;0.0625;0.004662
6252198892;0.006248;0.02069
6252250221;0.006248;0.003975
6252205371;0.0125;0.001554
4974639465;0.0625;0.08569
5028636792;0.125;0.003109
6252009114;0.00769;0.004662
6252244519;0.03125;0.001987
4665892165;0.125;0.07642
6252117782;0.03125;0.0159
6252060052;0.009369;0.002842
6239416246;0.1875;0.04773
6252123553;0.0;0.0001554
6252023131;0.03125;0.003109
6252060052;0.009369;0.002842
6252243574;0.04688;0.0636
6252154547;0.0;0.0001554
6252038379;0.006248;0.002392
6252185167;0.03125;0.01125
6252065441;0.0625;0.007767
6252155622;0.03125;0.01143
6252213470;0.0075;0.007767
6252185167;0.03125;0.01125
6252081084;0.0125;0.001554
6252247109;0.006248;0.003975
6252267121;0.0625;0.02386
6252097319;0.00676;0.001972
6252152926;0.006248;0.00544
6252267121;0.0625;0.02386
6252154926;0.0125;0.001554
6252154547;0.0;0.0001554
6252040053;0.0625;0.006218
6251815474;0.006248;0.04773
6252131803;0.03125;0.01125
6252096382;0.0125;0.004662
6252243574;0.04688;0.0636
6252198892;0.006248;0.02069
6252038379;0.006248;0.002392
6252281215;0.006248;0.02069
6252133192;0.0625;0.01244
6252133192;0.0625;0.01244
4297551713;0.006248;0.00795
5310996749;0.0625;0.04791
6252082131;0.009369;0.01244
6252081084;0.0125;0.001554
6252277611;0.0625;0.007767
6252097319;0.00676;0.001972
6252054293;0.02792;0.02704
6252072828;0.0;0.0001554
6252174995;0.09998;0.02069
6252174995;0.09998;0.02069
6252072211;0.006248;0.01244
6252026439;0.0125;0.003975
6252034706;0.006248;0.001554
6252244519;0.03125;0.001987
6252244968;0.04999;0.005875
6252040153;0.006248;0.002796
6252205371;0.0125;0.001554
6252112041;0.006248;0.003975
6252133192;0.0625;0.01244
6252146438;0.0625;0.04773
6252082131;0.009369;0.01244
6252084432;0.006248;0.004662
6252199230;0.006248;0.004662
6251994735;0.006248;0.008392
6252099695;0.03125;0.01125
6252023131;0.03125;0.003109
6252244519;0.03125;0.001987
6252193273;0.0625;0.1034
6252260521;0.006248;0.02386
6252214788;0.03125;0.01125
5028636792;0.125;0.003109
6252082131;0.009369;0.01244
6252009114;0.00769;0.004662
6252027972;0.006248;0.002796
6252099695;0.03125;0.01125
6252097319;0.00676;0.001972
6252205371;0.0125;0.001554
6252217379;0.0;0.0001554
6252154926;0.0125;0.001554
6252260521;0.006248;0.02386
6252040053;0.0625;0.006218
6252112538;0.0;0.0001554
6252199230;0.006248;0.004662
6252262921;0.0625;0.007767
6252063782;0.006248;0.004349
6252152926;0.006248;0.00544
5310996749;0.0625;0.04791
6252155622;0.03125;0.01143
6252027972;0.006248;0.002796
6252278566;0.03125;0.0159
6252115818;0.04999;0.005875
6252262921;0.0625;0.007767
1488089419;0.0625;0.0159
6252008056;0.006248;0.002331
6252123553;0.0;0.0001554
6252169967;0.0625;0.004662
6251994475;0.006248;0.0318
6252243633;0.006248;0.0318
6252237278;0.0;0.0001554
6252082131;0.009369;0.01244
6252246950;0.006248;0.003975
6251994475;0.006248;0.0318
6252244519;0.03125;0.001987
6252099695;0.03125;0.01125
4974639465;0.0625;0.08569
6252174995;0.09998;0.02069
6252059383;0.0;0.0001554
6252023131;0.03125;0.003109
6238340468;0.0625;0.03961
4974639465;0.0625;0.08569
6252096299;0.0125;0.004662
6252174995;0.09998;0.02069
6252081004;0.006248;0.01244
6252260521;0.006248;0.02386
4665892165;0.125;0.07642
6252020654;0.009369;0.01244
6252038379;0.006248;0.002392
4297551713;0.006248;0.00795
6252243633;0.006248;0.0318
1488089419;0.0625;0.0159
6252064645;0.0125;0.01166
6238837081;0.03125;0.02795
6252123553;0.0;0.0001554
6252267121;0.0625;0.02386
6252207278;0.03125;0.01125
6252117782;0.03125;0.0159
6252082131;0.009369;0.01244
6252112041;0.006248;0.003975
6252170086;0.03125;0.0159
6238837081;0.03125;0.02795
6252152926;0.006248;0.00544
6252020654;0.009369;0.01244
5310996749;0.0625;0.04791
6252063782;0.006248;0.004349
6252081084;0.0125;0.001554
6252246950;0.006248;0.003975
6252244968;0.04999;0.005875
6252059383;0.0;0.0001554
6252266490;0.006248;0.02386
6252038379;0.006248;0.002392
5658646673;0.09375;0.02057
6252267121;0.0625;0.02386
6252034706;0.006248;0.001554
6252267121;0.0625;0.02386
6252278566;0.03125;0.0159
6252244519;0.03125;0.001987
6252040153;0.006248;0.002796
6252096299;0.0125;0.004662
6252123553;0.0;0.0001554
6252246950;0.006248;0.003975
6252065441;0.0625;0.007767
6252064645;0.0125;0.01166
6252112041;0.006248;0.003975
6252243574;0.04688;0.0636
6252131803;0.03125;0.01125
6252146438;0.0625;0.04773
6252082845;0.006248;0.004662
1488089419;0.0625;0.0159
6252023131;0.03125;0.003109
6251815474;0.006248;0.04773
6252059383;0.0;0.0001554
6252026439;0.0125;0.003975
6252267121;0.0625;0.02386
6252081084;0.0125;0.001554
6252042334;0.006248;0.01157
5658646673;0.09375;0.02057
6252096382;0.0125;0.004662
6252107086;0.0625;0.004662
6238837081;0.03125;0.02795
6252146438;0.0625;0.04773
5440065394;0.03748;0.01088
6252063782;0.006248;0.004349
6252112958;0.009369;0.004662
6252084432;0.006248;0.004662
6252155622;0.03125;0.01143
6252123553;0.0;0.0001554
6252040053;0.0625;0.006218
6238837081;0.03125;0.02795
6252065740;0.04688;0.0636
6239416246;0.1875;0.04773
6252262921;0.0625;0.007767
6252277611;0.0625;0.007767
6252112538;0.0;0.0001554
6252169967;0.0625;0.004662
6252097319;0.00676;0.001972
6252072211;0.006248;0.01244
6252205371;0.0125;0.001554
6252112958;0.009369;0.004662
5310996749;0.0625;0.04791
6252246950;0.006248;0.003975
6252260521;0.006248;0.02386
6252097724;0.1694;0.02774
5440065394;0.03748;0.01088
6252026439;0.0125;0.003975
6252072828;0.0;0.0001554
6252131803;0.03125;0.01125
6252214788;0.03125;0.01125
6251480205;0.0625;0.06213
6252198892;0.006248;0.02069
6252267121;0.0625;0.02386
6251994735;0.006248;0.008392
1488089419;0.0625;0.0159
6252152926;0.006248;0.00544
6252068151;0.006248;0.003975
6252193230;0.0125;0.02863
6252267121;0.0625;0.02386
6252199230;0.006248;0.004662
6252096299;0.0125;0.004662
6252020654;0.009369;0.01244
6252060052;0.009369;0.002842
6252243633;0.006248;0.0318
5028636792;0.125;0.003109
6252251418;0.006248;0.003975
4665892165;0.125;0.07642
6252081084;0.0125;0.001554
6252251418;0.006248;0.003975
6252277611;0.0625;0.007767
6252096382;0.0125;0.004662
6252154547;0.0;0.0001554
6252107086;0.0625;0.004662
6252038379;0.006248;0.002392
6252115818;0.04999;0.005875
6252243633;0.006248;0.0318
6252023131;0.03125;0.003109
6252214788;0.03125;0.01125
6252266490;0.006248;0.02386
6252072828;0.0;0.0001554
6252213470;0.0075;0.007767
6252260521;0.006248;0.02386
6252277611;0.0625;0.007767
6251480205;0.0625;0.06213
6252023131;0.03125;0.003109
6252152926;0.006248;0.00544
6252199230;0.006248;0.004662
6252169967;0.0625;0.004662
6252096382;0.0125;0.004662
6252034706;0.006248;0.001554
6252246950;0.006248;0.003975
6252246950;0.006248;0.003975
6252063782;0.006248;0.004349
6252133192;0.0625;0.01244
6236432122;0.05627;0.02145
6251815474;0.006248;0.04773
6238340468;0.0625;0.03961
6252185167;0.03125;0.01125
6252115818;0.04999;0.005875
6252082131;0.009369;0.01244
6252042334;0.006248;0.01157
6252097724;0.1694;0.02774
6252020654;0.009369;0.01244
6252199230;0.006248;0.004662
6252040153;0.006248;0.002796
6252205701;0.006248;0.003975
6252023131;0.03125;0.003109
6252051821;0.006248;0.01157
6252039441;0.03125;0.02386
6252155622;0.03125;0.01143
6252131803;0.03125;0.01125
6252170086;0.03125;0.0159
6252065441;0.0625;0.007767
6251815474;0.006248;0.04773
6252096382;0.0125;0.004662
6252277611;0.0625;0.007767
6252072211;0.006248;0.01244
6252205371;0.0125;0.001554
6252082845;0.006248;0.004662
6252051821;0.006248;0.01157
6252038379;0.006248;0.002392
6251815474;0.006248;0.04773
6252133192;0.0625;0.01244
6252097319;0.00676;0.001972
6252207278;0.03125;0.01125
6252244968;0.04999;0.005875
6238837081;0.03125;0.02795
6252009114;0.00769;0.004662
6252154926;0.0125;0.001554
4974639465;0.0625;0.08569
6252205371;0.0125;0.001554
6252133421;0.0;0.0001554
5440065394;0.03748;0.01088
6252154926;0.0125;0.001554
6252065441;0.0625;0.007767
6252278566;0.03125;0.0159
6252064094;0.006248;0.0318
5960925264;0.125;0.03339
6252267121;0.0625;0.02386
6252266490;0.006248;0.02386
6252277611;0.0625;0.007767
6252174995;0.09998;0.02069
6252026439;0.0125;0.003975
4974639465;0.0625;0.08569
6252244519;0.03125;0.001987
6252243633;0.006248;0.0318
6252060052;0.009369;0.002842
6252205701;0.006248;0.003975
6252023131;0.03125;0.003109
6252207278;0.03125;0.01125
6252020654;0.009369;0.01244
6252054293;0.02792;0.02704
6252039441;0.03125;0.02386
6252063782;0.006248;0.004349
6252023131;0.03125;0.003109
6251480205;0.0625;0.06213
6239416246;0.1875;0.04773
6252059383;0.0;0.0001554
5028636792;0.125;0.003109
6252169967;0.0625;0.004662
6252097319;0.00676;0.001972
6238340468;0.0625;0.03961
5440065394;0.03748;0.01088
5960925264;0.125;0.03339
6252060052;0.009369;0.002842
6252131803;0.03125;0.01125
6252193273;0.0625;0.1034
6252205371;0.0125;0.001554
6252072828;0.0;0.0001554
6252199230;0.006248;0.004662
5440065394;0.03748;0.01088
6236432122;0.05627;0.02145
6252170086;0.03125;0.0159
6252205701;0.006248;0.003975
6252059383;0.0;0.0001554
6252009114;0.00769;0.004662
6251815474;0.006248;0.04773
6252143603;0.03125;0.0159
6252023131;0.03125;0.003109
6252123553;0.0;0.0001554
6252185167;0.03125;0.01125
6252143603;0.03125;0.0159
6238837081;0.03125;0.02795
6252097724;0.1694;0.02774
6252107765;0.0;0.0001554
6252040153;0.006248;0.002796
6252246950;0.006248;0.003975
6252278566;0.03125;0.0159
6252064094;0.006248;0.0318
6252174995;0.09998;0.02069
6252027972;0.006248;0.002796
6252131803;0.03125;0.01125
6252207278;0.03125;0.01125
6252060052;0.009369;0.002842
6252217379;0.0;0.0001554
5658646673;0.09375;0.02057
6252039441;0.03125;0.02386
6252060052;0.009369;0.002842
6252060052;0.009369;0.002842
6252204848;0.0125;0.001554
6252131803;0.03125;0.01125
6251480205;0.0625;0.06213
6252023131;0.03125;0.003109
1488089419;0.0625;0.0159
6252244519;0.03125;0.001987
6252152926;0.006248;0.00544
6252115818;0.04999;0.005875
6252281215;0.006248;0.02069
6252060052;0.009369;0.002842
6252174995;0.09998;0.02069
5028636792;0.125;0.003109
6252204848;0.0125;0.001554
6252205371;0.0125;0.001554
6252154547;0.0;0.0001554
6252237278;0.0;0.0001554
6252170086;0.03125;0.0159
6252244519;0.03125;0.001987
6252267121;0.0625;0.02386
6251994475;0.006248;0.0318
6252063782;0.006248;0.004349
6252060052;0.009369;0.002842
6252152926;0.006248;0.00544
6252278566;0.03125;0.0159
6252213470;0.0075;0.007767
1488089419;0.0625;0.0159
5960925264;0.125;0.03339
6252084432;0.006248;0.004662
6252064094;0.006248;0.0318
6252117782;0.03125;0.0159
6252193273;0.0625;0.1034
6252266490;0.006248;0.02386
6252267121;0.0625;0.02386
6252170086;0.03125;0.0159
6252059383;0.0;0.0001554
6252059383;0.0;0.0001554
6252205701;0.006248;0.003975
6252009114;0.00769;0.004662
6252199230;0.006248;0.004662
5028636792;0.125;0.003109
6252247109;0.006248;0.003975
6252278566;0.03125;0.0159
6252246950;0.006248;0.003975
6236432122;0.05627;0.02145
6252034706;0.006248;0.001554
6252038379;0.006248;0.002392
6252096299;0.0125;0.004662
6252152926;0.006248;0.00544
6252154926;0.0125;0.001554
6252199230;0.006248;0.004662
6252097319;0.00676;0.001972
6252251418;0.006248;0.003975
6251994735;0.006248;0.008392
6236432122;0.05627;0.02145
6252082845;0.006248;0.004662
6238340468;0.0625;0.03961
6252174995;0.09998;0.02069
6252247109;0.006248;0.003975
6251994735;0.006248;0.008392
6252042334;0.006248;0.01157
6252199230;0.006248;0.004662
6252185167;0.03125;0.01125
6252207278;0.03125;0.01125
4297551713;0.006248;0.00795
6238837081;0.03125;0.02795
6252246950;0.006248;0.003975
6252193273;0.0625;0.1034
6251815474;0.006248;0.04773
5658646673;0.09375;0.02057
6252170086;0.03125;0.0159
6252237278;0.0;0.0001554
6252133421;0.0;0.0001554
6252123553;0.0;0.0001554
6252260521;0.006248;0.02386
6252146438;0.0625;0.04773
6252143603;0.03125;0.0159
6252065740;0.04688;0.0636
6252027972;0.006248;0.002796
6251815474;0.006248;0.04773
6252131803;0.03125;0.01125
6252065740;0.04688;0.0636
6252081004;0.006248;0.01244
5440065394;0.03748;0.01088
6252237278;0.0;0.0001554
6252039441;0.03125;0.02386
6252060052;0.009369;0.002842
6252081084;0.0125;0.001554
6252266490;0.006248;0.02386
6252026439;0.0125;0.003975
6252244519;0.03125;0.001987
5028636792;0.125;0.003109
6252250221;0.006248;0.003975
6252040053;0.0625;0.006218
6252096299;0.0125;0.004662
6252143603;0.03125;0.0159
6252266490;0.006248;0.02386
6252064645;0.0125;0.01166
6252068151;0.006248;0.003975
6252207278;0.03125;0.01125
6252250221;0.006248;0.003975
6252040153;0.006248;0.002796
6252107765;0.0;0.0001554
6252020654;0.009369;0.01244
6252084432;0.006248;0.004662
6252262921;0.0625;0.007767
5960925264;0.125;0.03339
6252117782;0.03125;0.0159
6252112958;0.009369;0.004662
6252008056;0.006248;0.002331
6252198892;0.006248;0.02069
6252065740;0.04688;0.0636
6252064094;0.006248;0.0318
5658646673;0.09375;0.02057
6252217379;0.0;0.0001554
6251994735;0.006248;0.008392
6252204848;0.0125;0.001554
6252081004;0.006248;0.01244
6252112041;0.006248;0.003975
6252243633;0.006248;0.0318
6252267121;0.0625;0.02386
6252251418;0.006248;0.003975
6252020654;0.009369;0.01244
5440065394;0.03748;0.01088
6252244519;0.03125;0.001987
6252217379;0.0;0.0001554
6252214788;0.03125;0.01125
