6252117782;0.03125;0.0159
6252217379;0.0;0.0001554
6252065441;0.0625;0.007767
6252204848;0.0125;0.001554
6252068151;0.006248;0.003975
6252246950;0.006248;0.003975
6252133421;0.0;0.0001554
6252099695;0.03125;0.01125
6252199230;0.006248;0.004662
6252123553;0.0;0.0001554
6252154547;0.0;0.0001554
6252214788;0.03125;0.01125
4297551713;0.006248;0.00795
6252185167;0.03125;0.01125
6252072211;0.006248;0.01244
6252008056;0.006248;0.002331
4297551713;0.006248;0.00795
5310996749;0.0625;0.04791
6252107765;0.0;0.0001554
6252267121;0.0625;0.02386
6252051821;0.006248;0.01157
5960925264;0.125;0.03339
6252262921;0.0625;0.007767
6252278566;0.03125;0.0159
6252278566;0.03125;0.0159
6251480205;0.0625;0.06213
6252199230;0.006248;0.004662
6252034706;0.006248;0.001554
6251994475;0.006248;0.0318
6252020654;0.009369;0.01244
6252185167;0.03125;0.01125
6252060052;0.009369;0.002842
6252205371;0.0125;0.001554
6252009114;0.00769;0.004662
6252251418;0.006248;0.003975
6252244968;0.04999;0.005875
6252082845;0.006248;0.004662
6252199230;0.006248;0.004662
6252034706;0.006248;0.001554
6252112958;0.009369;0.004662
6252250221;0.006248;0.003975
6252096382;0.0125;0.004662
6252059383;0.0;0.0001554
6239416246;0.1875;0.04773
6252096299;0.0125;0.004662
6252243574;0.04688;0.0636
6252199230;0.006248;0.004662
6252112538;0.0;0.0001554
6252131803;0.03125;0.01125
6252112958;0.009369;0.004662
1488089419;0.0625;0.0159
6252123553;0.0;0.0001554
6252026439;0.0125;0.003975
5658646673;0.09375;0.02057
6251994475;0.006248;0.0318
6252051821;0.006248;0.01157
6252146438;0.0625;0.04773
6252084432;0.006248;0.004662
6252146438;0.0625;0.04773
6252154547;0.0;0.0001554
6252020654;0.009369;0.01244
6252281215;0.006248;0.02069
6252205701;0.006248;0.003975
6252068151;0.006248;0.003975
6252099695;0.03125;0.01125
6252185167;0.03125;0.01125
6252082131;0.009369;0.01244
6252251418;0.006248;0.003975
6252039441;0.03125;0.02386
6252207278;0.03125;0.01125
6252123553;0.0;0.0001554
6252260521;0.006248;0.02386
6252065441;0.0625;0.007767
6252107086;0.0625;0.004662
6252072828;0.0;0.0001554
6252009114;0.00769;0.004662
6252081084;0.0125;0.001554
6252096299;0.0125;0.004662
6252020654;0.009369;0.01244
6252059383;0.0;0.0001554
6252244519;0.03125;0.001987
6236432122;0.05627;0.02145
6252155622;0.03125;0.01143
6252250221;0.006248;0.003975
6252065441;0.0625;0.007767
6252026439;0.0125;0.003975
6252096299;0.0125;0.004662
6251994475;0.006248;0.0318
6252060052;0.009369;0.002842
6252042334;0.006248;0.01157
6252065740;0.04688;0.0636
6252059383;0.0;0.0001554
6252193230;0.0125;0.02863
6252169967;0.0625;0.004662
6252065441;0.0625;0.007767
6252193230;0.0125;0.02863
5960925264;0.125;0.03339
6252038379;0.006248;0.002392
6252063782;0.006248;0.004349
6252072211;0.006248;0.01244
6252204848;0.0125;0.001554
6252133421;0.0;0.0001554
6252174995;0.09998;0.02069
6252040053;0.0625;0.006218
6252214788;0.03125;0.01125
6252064645;0.0125;0.01166
6252023601;0.0625;0.006218
6252204848;0.0125;0.001554
6252042334;0.006248;0.01157
6238340468;0.0625;0.03961
5658646673;0.09375;0.02057
6252097319;0.00676;0.001972
6252097724;0.1694;0.02774
6252152926;0.006248;0.00544
6236432122;0.05627;0.02145
6252008056;0.006248;0.002331
6252063782;0.006248;0.004349
5310996749;0.0625;0.04791
4974639465;0.0625;0.08569
6252112538;0.0;0.0001554
6252082131;0.009369;0.01244
6252244968;0.04999;0.005875
6252205371;0.0125;0.001554
6252250221;0.006248;0.003975
6252198892;0.006248;0.02069
6252243633;0.006248;0.0318
6252251418;0.006248;0.003975
6252023601;0.0625;0.006218
6252152926;0.006248;0.00544
6252084432;0.006248;0.004662
6252260521;0.006248;0.02386
6252152926;0.006248;0.00544
5960925264;0.125;0.03339
6252174995;0.09998;0.02069
6252204848;0.0125;0.001554
6252244519;0.03125;0.001987
6252023131;0.03125;0.003109
6252038379;0.006248;0.002392
6252154926;0.0125;0.001554
6252207278;0.03125;0.01125
6252193230;0.0125;0.02863
6252082845;0.006248;0.004662
6252170086;0.03125;0.0159
6252250221;0.006248;0.003975
6252244519;0.03125;0.001987
6252217379;0.0;0.0001554
6238340468;0.0625;0.03961
6252097319;0.00676;0.001972
6252020654;0.009369;0.01244
4665892165;0.125;0.07642
6252115818;0.04999;0.005875
6252143603;0.03125;0.0159
6252267121;0.0625;0.02386
6252123553;0.0;0.0001554
6252244968;0.04999;0.005875
6252096382;0.0125;0.004662
6252133192;0.0625;0.01244
6252154547;0.0;0.0001554
6252027972;0.006248;0.002796
6252068151;0.006248;0.003975
6252260521;0.006248;0.02386
6252096382;0.0125;0.004662
6252020654;0.009369;0.01244
6252143603;0.03125;0.0159
6252065441;0.0625;0.007767
6251815474;0.006248;0.04773
6252152926;0.006248;0.00544
6252152926;0.006248;0.00544
5658646673;0.09375;0.02057
6252169967;0.0625;0.004662
5028636792;0.125;0.003109
6252065441;0.0625;0.007767
6252115818;0.04999;0.005875
6252009114;0.00769;0.004662
6252060052;0.009369;0.002842
6252072828;0.0;0.0001554
6252193230;0.0125;0.02863
5028636792;0.125;0.003109
6236432122;0.05627;0.02145
6252185167;0.03125;0.01125
6252169967;0.0625;0.004662
6252170086;0.03125;0.0159
6252205701;0.006248;0.003975
6252155622;0.03125;0.01143
5658646673;0.09375;0.02057
6252081004;0.006248;0.01244
6252244968;0.04999;0.005875
6236432122;0.05627;0.02145
6252107765;0.0;0.0001554
6252244519;0.03125;0.001987
6252143603;0.03125;0.0159
6251815474;0.006248;0.04773
6252068151;0.006248;0.003975
6252243633;0.006248;0.0318
6252040053;0.0625;0.006218
6252008056;0.006248;0.002331
6252117782;0.03125;0.0159
6236432122;0.05627;0.02145
6252068151;0.006248;0.003975
6252034706;0.006248;0.001554
6252244968;0.04999;0.005875
6252133192;0.0625;0.01244
6252082131;0.009369;0.01244
6252217379;0.0;0.0001554
6252205371;0.0125;0.001554
6238837081;0.03125;0.02795
6252155622;0.03125;0.01143
6252054293;0.02792;0.02704
6252262921;0.0625;0.007767
6251480205;0.0625;0.06213
6252267121;0.0625;0.02386
6252205371;0.0125;0.001554
6252038379;0.006248;0.002392
6252064645;0.0125;0.01166
6252084432;0.006248;0.004662
6252133192;0.0625;0.01244
6252247109;0.006248;0.003975
6252243633;0.006248;0.0318
6252082131;0.009369;0.01244
6252213470;0.0075;0.007767
6252281215;0.006248;0.02069
6252205701;0.006248;0.003975
6252081084;0.0125;0.001554
6252205701;0.006248;0.003975
6252193230;0.0125;0.02863
6252072828;0.0;0.0001554
6252039441;0.03125;0.02386
6252026439;0.0125;0.003975
6252027972;0.006248;0.002796
6252155622;0.03125;0.01143
6252199230;0.006248;0.004662
6252199230;0.006248;0.004662
6252262921;0.0625;0.007767
6252246950;0.006248;0.003975
5028636792;0.125;0.003109
6252112958;0.009369;0.004662
6252042334;0.006248;0.01157
6252020654;0.009369;0.01244
6252243574;0.04688;0.0636
6252244968;0.04999;0.005875
6252169967;0.0625;0.004662
5310996749;0.0625;0.04791
6252107086;0.0625;0.004662
6252023131;0.03125;0.003109
6251994735;0.006248;0.008392
6252193273;0.0625;0.1034
6252266490;0.006248;0.02386
5658646673;0.09375;0.02057
6252112041;0.006248;0.003975
6252169967;0.0625;0.004662
6252247109;0.006248;0.003975
6252207278;0.03125;0.01125
4974639465;0.0625;0.08569
6252174995;0.09998;0.02069
5310996749;0.0625;0.04791
6252185167;0.03125;0.01125
6252146438;0.0625;0.04773
6252072828;0.0;0.0001554
6251994735;0.006248;0.008392
4974639465;0.0625;0.08569
6252170086;0.03125;0.0159
6252262921;0.0625;0.007767
6252020654;0.009369;0.01244
6252214788;0.03125;0.01125
6252097724;0.1694;0.02774
6252262921;0.0625;0.007767
6252170086;0.03125;0.0159
4665892165;0.125;0.07642
1488089419;0.0625;0.0159
6252185167;0.03125;0.01125
6252107086;0.0625;0.004662
6252214788;0.03125;0.01125
6252152926;0.006248;0.00544
6252068151;0.006248;0.003975
6252154926;0.0125;0.001554
1488089419;0.0625;0.0159
6252081084;0.0125;0.001554
6252009114;0.00769;0.004662
6252247109;0.006248;0.003975
6252039441;0.03125;0.02386
6252068151;0.006248;0.003975
6252027972;0.006248;0.002796
6252107765;0.0;0.0001554
6252154926;0.0125;0.001554
6252112041;0.006248;0.003975
6252112538;0.0;0.0001554
6252146438;0.0625;0.04773
6238340468;0.0625;0.03961
6252072211;0.006248;0.01244
6251994735;0.006248;0.008392
4665892165;0.125;0.07642
6251994735;0.006248;0.008392
6252064094;0.006248;0.0318
6252133192;0.0625;0.01244
4665892165;0.125;0.07642
6251994475;0.006248;0.0318
6252262921;0.0625;0.007767
6252082131;0.009369;0.01244
6252072211;0.006248;0.01244
6252084432;0.006248;0.004662
6252154547;0.0;0.0001554
5658646673;0.09375;0.02057
6252023131;0.03125;0.003109
6252143603;0.03125;0.0159
6252204848;0.0125;0.001554
6252034706;0.006248;0.001554
6236432122;0.05627;0.02145
6252185167;0.03125;0.01125
6252198892;0.006248;0.02069
6252034706;0.006248;0.001554
6252244519;0.03125;0.001987
6252054293;0.02792;0.02704
6252207278;0.03125;0.01125
6236432122;0.05627;0.02145
6252146438;0.0625;0.04773
5440065394;0.03748;0.01088
6252082845;0.006248;0.004662
6252072211;0.006248;0.01244
4297551713;0.006248;0.00795
6252243633;0.006248;0.0318
5310996749;0.0625;0.04791
6252072828;0.0;0.0001554
5960925264;0.125;0.03339
6252169967;0.0625;0.004662
6252059383;0.0;0.0001554
6252072211;0.006248;0.01244
6252107765;0.0;0.0001554
6252143603;0.03125;0.0159
6252099695;0.03125;0.01125
6252243574;0.04688;0.0636
6252082845;0.006248;0.004662
6252205701;0.006248;0.003975
6252243633;0.006248;0.0318
6251994475;0.006248;0.0318
6252065441;0.0625;0.007767
6252152926;0.006248;0.00544
6252054293;0.02792;0.02704
6252251418;0.006248;0.003975
6252155622;0.03125;0.01143
6252204848;0.0125;0.001554
6252123553;0.0;0.0001554
6252072211;0.006248;0.01244
6252193230;0.0125;0.02863
6252193230;0.0125;0.02863
6252096299;0.0125;0.004662
6238837081;0.03125;0.02795
6252112538;0.0;0.0001554
6252281215;0.006248;0.02069
6252251418;0.006248;0.003975
6252064094;0.006248;0.0318
6251815474;0.006248;0.04773
6252250221;0.006248;0.003975
6252060052;0.009369;0.002842
6252064645;0.0125;0.01166
6251994735;0.006248;0.008392
6252278566;0.03125;0.0159
6252097319;0.00676;0.001972
6252266490;0.006248;0.02386
6252267121;0.0625;0.02386
6252266490;0.006248;0.02386
6252262921;0.0625;0.007767
6252026439;0.0125;0.003975
6252112538;0.0;0.0001554
6252096382;0.0125;0.004662
6252247109;0.006248;0.003975
6252146438;0.0625;0.04773
6252115818;0.04999;0.005875
6252082845;0.006248;0.004662
6252278566;0.03125;0.0159
6252123553;0.0;0.0001554
6252260521;0.006248;0.02386
4665892165;0.125;0.07642
6252082131;0.009369;0.01244
6252026439;0.0125;0.003975
6252131803;0.03125;0.01125
6252068151;0.006248;0.003975
6252099695;0.03125;0.01125
6252193230;0.0125;0.02863
6252267121;0.0625;0.02386
6252133192;0.0625;0.01244
6252112538;0.0;0.0001554
6252278566;0.03125;0.0159
6252207278;0.03125;0.01125
6252250221;0.006248;0.003975
6252205701;0.006248;0.003975
6239416246;0.1875;0.04773
6252123553;0.0;0.0001554
6252059383;0.0;0.0001554
6252039441;0.03125;0.02386
6252278566;0.03125;0.0159
6252064645;0.0125;0.01166
6252081004;0.006248;0.01244
6238340468;0.0625;0.03961
6252198892;0.006248;0.02069
6252040153;0.006248;0.002796
6251815474;0.006248;0.04773
6252262921;0.0625;0.007767
6252023131;0.03125;0.003109
6252020654;0.009369;0.01244
6252027972;0.006248;0.002796
6252112958;0.009369;0.004662
6252072828;0.0;0.0001554
6252246950;0.006248;0.003975
6252026439;0.0125;0.003975
6252193273;0.0625;0.1034
6252097724;0.1694;0.02774
6252081004;0.006248;0.01244
6252152926;0.006248;0.00544
6252260521;0.006248;0.02386
6252099695;0.03125;0.01125
6252096382;0.0125;0.004662
6236432122;0.05627;0.02145
5960925264;0.125;0.03339
6252064094;0.006248;0.0318
6252243633;0.006248;0.0318
4974639465;0.0625;0.08569
6252205701;0.006248;0.003975
6239416246;0.1875;0.04773
6252072828;0.0;0.0001554
6252072828;0.0;0.0001554
6252099695;0.03125;0.01125
6252040053;0.0625;0.006218
6252039441;0.03125;0.02386
6252068151;0.006248;0.003975
6252174995;0.09998;0.02069
6252115818;0.04999;0.005875
6252115818;0.04999;0.005875
6252051821;0.006248;0.01157
6252096299;0.0125;0.004662
6251994475;0.006248;0.0318
6236432122;0.05627;0.02145
6252246950;0.006248;0.003975
6252038379;0.006248;0.002392
6252117782;0.03125;0.0159
6252123553;0.0;0.0001554
6252243633;0.006248;0.0318
6252213470;0.0075;0.007767
6252112958;0.009369;0.004662
6252251418;0.006248;0.003975
6252099695;0.03125;0.01125
6252115818;0.04999;0.005875
6252281215;0.006248;0.02069
6252009114;0.00769;0.004662
6252068151;0.006248;0.003975
6252214788;0.03125;0.01125
6252081084;0.0125;0.001554
6252250221;0.006248;0.003975
6252204848;0.0125;0.001554
6252237278;0.0;0.0001554
6252026439;0.0125;0.003975
5310996749;0.0625;0.04791
6252051821;0.006248;0.01157
6252020654;0.009369;0.01244
6252214788;0.03125;0.01125
6252170086;0.03125;0.0159
6252133421;0.0;0.0001554
6252281215;0.006248;0.02069
6252247109;0.006248;0.003975
6252072211;0.006248;0.01244
6252251418;0.006248;0.003975
6252060052;0.009369;0.002842
6252204848;0.0125;0.001554
6252008056;0.006248;0.002331
6252060052;0.009369;0.002842
6252152926;0.006248;0.00544
6252262921;0.0625;0.007767
6252064094;0.006248;0.0318
6252023131;0.03125;0.003109
6252009114;0.00769;0.004662
6252246950;0.006248;0.003975
6252040053;0.0625;0.006218
6252026439;0.0125;0.003975
6252266490;0.006248;0.02386
6252054293;0.02792;0.02704
6252143603;0.03125;0.0159
6252038379;0.006248;0.002392
6252174995;0.09998;0.02069
6252082131;0.009369;0.01244
6252082131;0.009369;0.01244
6252107765;0.0;0.0001554
6252054293;0.02792;0.02704
6252008056;0.006248;0.002331
6252081084;0.0125;0.001554
4297551713;0.006248;0.00795
6252081004;0.006248;0.01244
6252170086;0.03125;0.0159
6252064645;0.0125;0.01166
6252199230;0.006248;0.004662
5658646673;0.09375;0.02057
6252072828;0.0;0.0001554
6252143603;0.03125;0.0159
6252207278;0.03125;0.01125
6252064645;0.0125;0.01166
6236432122;0.05627;0.02145
6238837081;0.03125;0.02795
6252204848;0.0125;0.001554
6252133421;0.0;0.0001554
6252009114;0.00769;0.004662
6252244968;0.04999;0.005875
6252143603;0.03125;0.0159
6252237278;0.0;0.0001554
6252237278;0.0;0.0001554
6252267121;0.0625;0.02386
6252143603;0.03125;0.0159
6252020654;0.009369;0.01244
6252082131;0.009369;0.01244
6252064645;0.0125;0.01166
6252133192;0.0625;0.01244
6252199230;0.006248;0.004662
6252081004;0.006248;0.01244
5440065394;0.03748;0.01088
6252267121;0.0625;0.02386
5028636792;0.125;0.003109
6252244519;0.03125;0.001987
6252027972;0.006248;0.002796
6252205371;0.0125;0.001554
6252034706;0.006248;0.001554
4974639465;0.0625;0.08569
6252097724;0.1694;0.02774
6252081084;0.0125;0.001554
6252060052;0.009369;0.002842
6252107765;0.0;0.0001554
6252096382;0.0125;0.004662
6252260521;0.006248;0.02386
5310996749;0.0625;0.04791
5658646673;0.09375;0.02057
6252267121;0.0625;0.02386
5658646673;0.09375;0.02057
4974639465;0.0625;0.08569
6252040153;0.006248;0.002796
6252243633;0.006248;0.0318
6252054293;0.02792;0.02704
6252193230;0.0125;0.02863
6252009114;0.00769;0.004662
6252115818;0.04999;0.005875
6252112041;0.006248;0.003975
6251994475;0.006248;0.0318
6252198892;0.006248;0.02069
6252040153;0.006248;0.002796
6252237278;0.0;0.0001554
6251994475;0.006248;0.0318
6252112041;0.006248;0.003975
6252042334;0.006248;0.01157
4665892165;0.125;0.07642
6252133421;0.0;0.0001554
6252084432;0.006248;0.004662
6252054293;0.02792;0.02704
6252082845;0.006248;0.004662
6252193273;0.0625;0.1034
6252115818;0.04999;0.005875
6251480205;0.0625;0.06213
6252097319;0.00676;0.001972
6252207278;0.03125;0.01125
6252042334;0.006248;0.01157
6252169967;0.0625;0.004662
6252198892;0.006248;0.02069
6252112041;0.006248;0.003975
6252099695;0.03125;0.01125
6252107765;0.0;0.0001554
6236432122;0.05627;0.02145
6252081004;0.006248;0.01244
6252193230;0.0125;0.02863
6252131803;0.03125;0.01125
6252205701;0.006248;0.003975
6252064645;0.0125;0.01166
6252244519;0.03125;0.001987
5310996749;0.0625;0.04791
6252020654;0.009369;0.01244
6252278566;0.03125;0.0159
6252112958;0.009369;0.004662
6238837081;0.03125;0.02795
6252205701;0.006248;0.003975
6239416246;0.1875;0.04773
6252281215;0.006248;0.02069
5310996749;0.0625;0.04791
6252277611;0.0625;0.007767
6252072828;0.0;0.0001554
6252009114;0.00769;0.004662
6252277611;0.0625;0.007767
6238837081;0.03125;0.02795
6252278566;0.03125;0.0159
6252039441;0.03125;0.02386
6252081084;0.0125;0.001554
6252174995;0.09998;0.02069
6252023601;0.0625;0.006218
4297551713;0.006248;0.00795
6252251418;0.006248;0.003975
6252246950;0.006248;0.003975
6252244519;0.03125;0.001987
6252034706;0.006248;0.001554
5310996749;0.0625;0.04791
6252107765;0.0;0.0001554
6252204848;0.0125;0.001554
6236432122;0.05627;0.02145
6252040153;0.006248;0.002796
6252112041;0.006248;0.003975
6252040153;0.006248;0.002796
6252107765;0.0;0.0001554
6252170086;0.03125;0.0159
6252237278;0.0;0.0001554
6252009114;0.00769;0.004662
6252243574;0.04688;0.0636
6252082131;0.009369;0.01244
6252039441;0.03125;0.02386
5440065394;0.03748;0.01088
5028636792;0.125;0.003109
6252064094;0.006248;0.0318
4297551713;0.006248;0.00795
6252154926;0.0125;0.001554
6252243633;0.006248;0.0318
6252112538;0.0;0.0001554
6252117782;0.03125;0.0159
6252207278;0.03125;0.01125
6252068151;0.006248;0.003975
6251815474;0.006248;0.04773
6252068151;0.006248;0.003975
6252214788;0.03125;0.01125
6252065441;0.0625;0.007767
6252040053;0.0625;0.006218
6252107086;0.0625;0.004662
6252034706;0.006248;0.001554
5440065394;0.03748;0.01088
6252214788;0.03125;0.01125
6252009114;0.00769;0.004662
6252020654;0.009369;0.01244
6252174995;0.09998;0.02069
6236432122;0.05627;0.02145
6251480205;0.0625;0.06213
6252143603;0.03125;0.0159
6251815474;0.006248;0.04773
6252117782;0.03125;0.0159
6251994735;0.006248;0.008392
6238340468;0.0625;0.03961
5310996749;0.0625;0.04791
6252123553;0.0;0.0001554
6252204848;0.0125;0.001554
6252185167;0.03125;0.01125
6251994735;0.006248;0.008392
6252244519;0.03125;0.001987
6252133192;0.0625;0.01244
6252081004;0.006248;0.01244
6252020654;0.009369;0.01244
6252262921;0.0625;0.007767
6252281215;0.006248;0.02069
6252040053;0.0625;0.006218
6252040053;0.0625;0.006218
6252072828;0.0;0.0001554
6252205701;0.006248;0.003975
6252081004;0.006248;0.01244
6252084432;0.006248;0.004662
6252260521;0.006248;0.02386
6251815474;0.006248;0.04773
6252207278;0.03125;0.01125
6252260521;0.006248;0.02386
6252081004;0.006248;0.01244
6238340468;0.0625;0.03961
5310996749;0.0625;0.04791
6252117782;0.03125;0.0159
6252154547;0.0;0.0001554
4297551713;0.006248;0.00795
6251994735;0.006248;0.008392
6252112958;0.009369;0.004662
6252051821;0.006248;0.01157
6252260521;0.006248;0.02386
6252214788;0.03125;0.01125
6252068151;0.006248;0.003975
6252154547;0.0;0.0001554
6252204848;0.0125;0.001554
6252123553;0.0;0.0001554
5028636792;0.125;0.003109
6252260521;0.006248;0.02386
6252023601;0.0625;0.006218
4297551713;0.006248;0.00795
6252154926;0.0125;0.001554
6252117782;0.03125;0.0159
6252131803;0.03125;0.01125
6252193230;0.0125;0.02863
6252146438;0.0625;0.04773
5028636792;0.125;0.003109
6252008056;0.006248;0.002331
6252082131;0.009369;0.01244
6252281215;0.006248;0.02069
6252244519;0.03125;0.001987
6252154926;0.0125;0.001554
6252026439;0.0125;0.003975
5960925264;0.125;0.03339
6252099695;0.03125;0.01125
6252247109;0.006248;0.003975
6252152926;0.006248;0.00544
6252059383;0.0;0.0001554
6252251418;0.006248;0.003975
1488089419;0.0625;0.0159
6252112041;0.006248;0.003975
6252008056;0.006248;0.002331
6252034706;0.006248;0.001554
6252038379;0.006248;0.002392
6252084432;0.006248;0.004662
6252193273;0.0625;0.1034
5440065394;0.03748;0.01088
6252207278;0.03125;0.01125
6251994475;0.006248;0.0318
6252244519;0.03125;0.001987
6252084432;0.006248;0.004662
6252027972;0.006248;0.002796
6251994735;0.006248;0.008392
5658646673;0.09375;0.02057
6252082131;0.009369;0.01244
6252027972;0.006248;0.002796
6252198892;0.006248;0.02069
6252040053;0.0625;0.006218
6252082131;0.009369;0.01244
6252205371;0.0125;0.001554
6252038379;0.006248;0.002392
6252198892;0.006248;0.02069
6252154547;0.0;0.0001554
6252214788;0.03125;0.01125
6252169967;0.0625;0.004662
6252039441;0.03125;0.02386
6238340468;0.0625;0.03961
6252009114;0.00769;0.004662
6252133421;0.0;0.0001554
6252198892;0.006248;0.02069
6252154926;0.0125;0.001554
6252107086;0.0625;0.004662
6252237278;0.0;0.0001554
6252117782;0.03125;0.0159
6252260521;0.006248;0.02386
6252266490;0.006248;0.02386
6252154926;0.0125;0.001554
5310996749;0.0625;0.04791
6252204848;0.0125;0.001554
6252023601;0.0625;0.006218
6252266490;0.006248;0.02386
6252133421;0.0;0.0001554
6252112041;0.006248;0.003975
6252008056;0.006248;0.002331
6252040153;0.006248;0.002796
6238837081;0.03125;0.02795
6252064094;0.006248;0.0318
6252081084;0.0125;0.001554
6252107765;0.0;0.0001554
6252213470;0.0075;0.007767
4665892165;0.125;0.07642
6252096382;0.0125;0.004662
6252204848;0.0125;0.001554
6252214788;0.03125;0.01125
6252174995;0.09998;0.02069
6252112958;0.009369;0.004662
6252084432;0.006248;0.004662
4974639465;0.0625;0.08569
6252247109;0.006248;0.003975
6252237278;0.0;0.0001554
6252244519;0.03125;0.001987
6252063782;0.006248;0.004349
6252023131;0.03125;0.003109
6252185167;0.03125;0.01125
6252039441;0.03125;0.02386
6252054293;0.02792;0.02704
4974639465;0.0625;0.08569
5960925264;0.125;0.03339
6252244968;0.04999;0.005875
6252117782;0.03125;0.0159
6252198892;0.006248;0.02069
6252068151;0.006248;0.003975
6252065441;0.0625;0.007767
6252170086;0.03125;0.0159
6252277611;0.0625;0.007767
6252174995;0.09998;0.02069
5440065394;0.03748;0.01088
6252084432;0.006248;0.004662
6238837081;0.03125;0.02795
6252244968;0.04999;0.005875
6252040053;0.0625;0.006218
6252266490;0.006248;0.02386
6252072828;0.0;0.0001554
6252107086;0.0625;0.004662
1488089419;0.0625;0.0159
6252040053;0.0625;0.006218
6252027972;0.006248;0.002796
6252065441;0.0625;0.007767
6252214788;0.03125;0.01125
6252277611;0.0625;0.007767
6252247109;0.006248;0.003975
6252169967;0.0625;0.004662
6252115818;0.04999;0.005875
6252026439;0.0125;0.003975
6252243574;0.04688;0.0636
6251815474;0.006248;0.04773
6252072828;0.0;0.0001554
6252112958;0.009369;0.004662
6252023601;0.0625;0.006218
6252112041;0.006248;0.003975
6252065740;0.04688;0.0636
6252243633;0.006248;0.0318
6252008056;0.006248;0.002331
6252170086;0.03125;0.0159
6252185167;0.03125;0.01125
6252123553;0.0;0.0001554
6252213470;0.0075;0.007767
6252217379;0.0;0.0001554
6252246950;0.006248;0.003975
6252123553;0.0;0.0001554
6252155622;0.03125;0.01143
6252117782;0.03125;0.0159
5440065394;0.03748;0.01088
6252123553;0.0;0.0001554
6238340468;0.0625;0.03961
6252199230;0.006248;0.004662
6252143603;0.03125;0.0159
6252023601;0.0625;0.006218
6252170086;0.03125;0.0159
6252034706;0.006248;0.001554
4297551713;0.006248;0.00795
6252039441;0.03125;0.02386
6252039441;0.03125;0.02386
6252267121;0.0625;0.02386
6252072211;0.006248;0.01244
6252054293;0.02792;0.02704
6252133192;0.0625;0.01244
6251994475;0.006248;0.0318
6252112958;0.009369;0.004662
6252278566;0.03125;0.0159
6252112958;0.009369;0.004662
6252112041;0.006248;0.003975
6252084432;0.006248;0.004662
6252026439;0.0125;0.003975
6252008056;0.006248;0.002331
6251994475;0.006248;0.0318
6252277611;0.0625;0.007767
6252246950;0.006248;0.003975
6252112538;0.0;0.0001554
6252266490;0.006248;0.02386
6252281215;0.006248;0.02069
6252266490;0.006248;0.02386
6252081004;0.006248;0.01244
6252064094;0.006248;0.0318
6252065441;0.0625;0.007767
6252155622;0.03125;0.01143
6252207278;0.03125;0.01125
6252154547;0.0;0.0001554
5310996749;0.0625;0.04791
6252020654;0.009369;0.01244
6252185167;0.03125;0.01125
6252068151;0.006248;0.003975
6252112958;0.009369;0.004662
6252213470;0.0075;0.007767
6252143603;0.03125;0.0159
6252064094;0.006248;0.0318
6252199230;0.006248;0.004662
6252217379;0.0;0.0001554
6252154926;0.0125;0.001554
6252068151;0.006248;0.003975
6252082845;0.006248;0.004662
6252082131;0.009369;0.01244
6252199230;0.006248;0.004662
6252247109;0.006248;0.003975
6252281215;0.006248;0.02069
6238837081;0.03125;0.02795
6252064645;0.0125;0.01166
6252277611;0.0625;0.007767
6252243633;0.006248;0.0318
6252146438;0.0625;0.04773
6252214788;0.03125;0.01125
6252155622;0.03125;0.01143
6252020654;0.009369;0.01244
6252081084;0.0125;0.001554
6252097319;0.00676;0.001972
6252026439;0.0125;0.003975
6252009114;0.00769;0.004662
6252185167;0.03125;0.01125
6252267121;0.0625;0.02386
6252260521;0.006248;0.02386
6252040153;0.006248;0.002796
6252026439;0.0125;0.003975
6252193230;0.0125;0.02863
6252097319;0.00676;0.001972
6252040153;0.006248;0.002796
6252199230;0.006248;0.004662
6252174995;0.09998;0.02069
6252246950;0.006248;0.003975
6252198892;0.006248;0.02069
6252112041;0.006248;0.003975
6251815474;0.006248;0.04773
4974639465;0.0625;0.08569
6252266490;0.006248;0.02386
5440065394;0.03748;0.01088
6252097724;0.1694;0.02774
6252054293;0.02792;0.02704
6252243633;0.006248;0.0318
6252096382;0.0125;0.004662
6252214788;0.03125;0.01125
6251994735;0.006248;0.008392
6252040053;0.0625;0.006218
6252204848;0.0125;0.001554
6252146438;0.0625;0.04773
6252064645;0.0125;0.01166
6252107086;0.0625;0.004662
6252204848;0.0125;0.001554
6252277611;0.0625;0.007767
4297551713;0.006248;0.00795
1488089419;0.0625;0.0159
6252131803;0.03125;0.01125
6252154926;0.0125;0.001554
6252131803;0.03125;0.01125
6252096299;0.0125;0.004662
5028636792;0.125;0.003109
6252099695;0.03125;0.01125
6252008056;0.006248;0.002331
6252082131;0.009369;0.01244
6252217379;0.0;0.0001554
6252143603;0.03125;0.0159
6252034706;0.006248;0.001554
6252096299;0.0125;0.004662
4974639465;0.0625;0.08569
6252112958;0.009369;0.004662
4665892165;0.125;0.07642
6252155622;0.03125;0.01143
6252082845;0.006248;0.004662
6252155622;0.03125;0.01143
6252213470;0.0075;0.007767
6252038379;0.006248;0.002392
6252115818;0.04999;0.005875
6252059383;0.0;0.0001554
6252082845;0.006248;0.004662
6252068151;0.006248;0.003975
6252131803;0.03125;0.01125
6252262921;0.0625;0.007767
6252081004;0.006248;0.01244
6252193273;0.0625;0.1034
6252199230;0.006248;0.004662
6252082845;0.006248;0.004662
6252117782;0.03125;0.0159
6252214788;0.03125;0.01125
6252123553;0.0;0.0001554
6252112538;0.0;0.0001554
6252117782;0.03125;0.0159
6252251418;0.006248;0.003975
6252281215;0.006248;0.02069
6252099695;0.03125;0.01125
6238340468;0.0625;0.03961
6251815474;0.006248;0.04773
6252198892;0.006248;0.02069
6239416246;0.1875;0.04773
6252243633;0.006248;0.0318
6252199230;0.006248;0.004662
6252244968;0.04999;0.005875
6252034706;0.006248;0.001554
6252277611;0.0625;0.007767
6252277611;0.0625;0.007767
6252198892;0.006248;0.02069
6252084432;0.006248;0.004662
6251994735;0.006248;0.008392
6252107765;0.0;0.0001554
6252217379;0.0;0.0001554
6252152926;0.006248;0.00544
6251480205;0.0625;0.06213
6252123553;0.0;0.0001554
6238340468;0.0625;0.03961
6252082845;0.006248;0.004662
6252027972;0.006248;0.002796
6252133421;0.0;0.0001554
4974639465;0.0625;0.08569
4974639465;0.0625;0.08569
6252205371;0.0125;0.001554
6252064094;0.006248;0.0318
6252266490;0.006248;0.02386
6251994735;0.006248;0.008392
6236432122;0.05627;0.02145
6252107086;0.0625;0.004662
5310996749;0.0625;0.04791
6252213470;0.0075;0.007767
5028636792;0.125;0.003109
6252250221;0.006248;0.003975
4974639465;0.0625;0.08569
6252107086;0.0625;0.004662
6252099695;0.03125;0.01125
6252278566;0.03125;0.0159
6252060052;0.009369;0.002842
6252107765;0.0;0.0001554
6252133421;0.0;0.0001554
6252040053;0.0625;0.006218
6252278566;0.03125;0.0159
6252278566;0.03125;0.0159
6252198892;0.006248;0.02069
6252096299;0.0125;0.004662
6252008056;0.006248;0.002331
6252174995;0.09998;0.02069
6251994475;0.006248;0.0318
6252097724;0.1694;0.02774
6252107765;0.0;0.0001554
6252042334;0.006248;0.01157
6252023601;0.0625;0.006218
5658646673;0.09375;0.02057
6252267121;0.0625;0.02386
6252143603;0.03125;0.0159
6252096382;0.0125;0.004662
6252193230;0.0125;0.02863
6239416246;0.1875;0.04773
6252237278;0.0;0.0001554
6252217379;0.0;0.0001554
