6252278566;0.03125;0.0159
6251684909;0.0625;0.1272
6252154573;0.01874;0.00264
6252277611;0.0625;0.007767
6252079513;0.006248;0.009323
6252142516;0.006248;0.004662
6252078775;0.03125;0.00795
6218406404;0.04065;0.02069
6252038353;0.03125;0.01125
6252079513;0.006248;0.009323
6252093862;0.0625;0.1034
6251684909;0.0625;0.1272
6252277611;0.0625;0.007767
6252152975;0.006248;0.004662
6252152975;0.006248;0.004662
6252154573;0.01874;0.00264
6252244691;0.0125;0.001554
6252096954;0.006248;0.004662
6251684909;0.0625;0.1272
6252142516;0.006248;0.004662
6251684909;0.0625;0.1272
6252154573;0.01874;0.00264
6252173953;0.03125;0.003731
6252096954;0.006248;0.004662
6252078775;0.03125;0.00795
6252096954;0.006248;0.004662
6252173953;0.03125;0.003731
6252244691;0.0125;0.001554
6252078775;0.03125;0.00795
6252278566;0.03125;0.0159
6252142516;0.006248;0.004662
6252154573;0.01874;0.00264
6252078775;0.03125;0.00795
6251684909;0.0625;0.1272
6252079513;0.006248;0.009323
6252173953;0.03125;0.003731
6252093862;0.0625;0.1034
6252277611;0.0625;0.007767
6252173953;0.03125;0.003731
6252173953;0.03125;0.003731
6252278566;0.03125;0.0159
6252142516;0.006248;0.004662
6252079513;0.006248;0.009323
6252042304;0.006248;0.0023
6252154573;0.01874;0.00264
6252191870;0.03125;0.004478
6252154573;0.01874;0.00264
6252244691;0.0125;0.001554
6252277611;0.0625;0.007767
6252173953;0.03125;0.003731
6252278566;0.03125;0.0159
6218406404;0.04065;0.02069
6218406404;0.04065;0.02069
6251684909;0.0625;0.1272
6252131980;0.0625;0.0159
6252173953;0.03125;0.003731
6252173953;0.03125;0.003731
6252244691;0.0125;0.001554
6252173953;0.03125;0.003731
6252278566;0.03125;0.0159
6252277611;0.0625;0.007767
6252142516;0.006248;0.004662
6252042304;0.006248;0.0023
6252154573;0.01874;0.00264
6251684909;0.0625;0.1272
6251684909;0.0625;0.1272
6252278566;0.03125;0.0159
6252278566;0.03125;0.0159
6252079513;0.006248;0.009323
6252154573;0.01874;0.00264
6252093862;0.0625;0.1034
6252079513;0.006248;0.009323
6252278566;0.03125;0.0159
6252173953;0.03125;0.003731
6252078775;0.03125;0.00795
6252244691;0.0125;0.001554
6252154573;0.01874;0.00264
6218406404;0.04065;0.02069
6252131980;0.0625;0.0159
6252096954;0.006248;0.004662
6252277611;0.0625;0.007767
6252079513;0.006248;0.009323
6252079513;0.006248;0.009323
6252078775;0.03125;0.00795
6218406404;0.04065;0.02069
6252278566;0.03125;0.0159
6252244691;0.0125;0.001554
6252277611;0.0625;0.007767
6252244691;0.0125;0.001554
6252244691;0.0125;0.001554
6252278566;0.03125;0.0159
6252244691;0.0125;0.001554
6252279396;0.0625;0.02386
6252278566;0.03125;0.0159
6252154573;0.01874;0.00264
6252142516;0.006248;0.004662
6252142516;0.006248;0.004662
6252078775;0.03125;0.00795
6252277611;0.0625;0.007767
6252277611;0.0625;0.007767
6252279396;0.0625;0.02386
6252279396;0.0625;0.02386
6252173953;0.03125;0.003731
6251684909;0.0625;0.1272
6252078775;0.03125;0.00795
6252078775;0.03125;0.00795
6252277611;0.0625;0.007767
6252244691;0.0125;0.001554
6252173953;0.03125;0.003731
6252096954;0.006248;0.004662
6252277611;0.0625;0.007767
6252079513;0.006248;0.009323
6252093862;0.0625;0.1034
6252173953;0.03125;0.003731
6218406404;0.04065;0.02069
6252279396;0.0625;0.02386
6252277611;0.0625;0.007767
6252173953;0.03125;0.003731
6252173953;0.03125;0.003731
6252278566;0.03125;0.0159
6252278566;0.03125;0.0159
6218406404;0.04065;0.02069
6252277611;0.0625;0.007767
6218406404;0.04065;0.02069
6252279396;0.0625;0.02386
6252191870;0.03125;0.004478
6252078775;0.03125;0.00795
6252191870;0.03125;0.004478
6251684909;0.0625;0.1272
6252278566;0.03125;0.0159
6252278566;0.03125;0.0159
6252078775;0.03125;0.00795
6252277611;0.0625;0.007767
6252191870;0.03125;0.004478
6252152975;0.006248;0.004662
6252278566;0.03125;0.0159
6252278566;0.03125;0.0159
6252173953;0.03125;0.003731
6252096954;0.006248;0.004662
6252096954;0.006248;0.004662
6252278566;0.03125;0.0159
6252142516;0.006248;0.004662
6252277611;0.0625;0.007767
6252154573;0.01874;0.00264
6252154573;0.01874;0.00264
6251684909;0.0625;0.1272
6251684909;0.0625;0.1272
6252278566;0.03125;0.0159
6252093862;0.0625;0.1034
6252244691;0.0125;0.001554
6251684909;0.0625;0.1272
6218406404;0.04065;0.02069
6252078775;0.03125;0.00795
6252079513;0.006248;0.009323
6252244691;0.0125;0.001554
6252154573;0.01874;0.00264
6252154573;0.01874;0.00264
6252173953;0.03125;0.003731
6252093862;0.0625;0.1034
6252277611;0.0625;0.007767
6252096954;0.006248;0.004662
6252078775;0.03125;0.00795
6252096954;0.006248;0.004662
6252173953;0.03125;0.003731
6252278566;0.03125;0.0159
6252277611;0.0625;0.007767
6252104085;0.006248;0.004662
6252154573;0.01874;0.00264
6252278566;0.03125;0.0159
6252173953;0.03125;0.003731
6252078775;0.03125;0.00795
6252278566;0.03125;0.0159
6251684909;0.0625;0.1272
6252191870;0.03125;0.004478
6251684909;0.0625;0.1272
6252042304;0.006248;0.0023
6252093862;0.0625;0.1034
6252173953;0.03125;0.003731
6252278566;0.03125;0.0159
6251684909;0.0625;0.1272
6252277611;0.0625;0.007767
6252079513;0.006248;0.009323
6252042304;0.006248;0.0023
6252096954;0.006248;0.004662
6252078775;0.03125;0.00795
6252154573;0.01874;0.00264
6251684909;0.0625;0.1272
6252096954;0.006248;0.004662
6252173953;0.03125;0.003731
6252173953;0.03125;0.003731
6252038353;0.03125;0.01125
6252278566;0.03125;0.0159
6252278566;0.03125;0.0159
6252131980;0.0625;0.0159
6252142516;0.006248;0.004662
6252078775;0.03125;0.00795
6252278566;0.03125;0.0159
6252154573;0.01874;0.00264
6251684909;0.0625;0.1272
6252191870;0.03125;0.004478
