6218406404,5615948519,0.04065,0.02069
6251994451,5732216164,0.006248,0.002796
6252038353,6018653387,0.03125,0.01125
6252042304,6121078361,0.006248,0.0023
6252078775,6662988288,0.03125,0.00795
6252079513,6675932388,0.006248,0.009323
6252093862,6914351425,0.0625,0.1034
6252096954,6975836327,0.006248,0.004662
6252104085,7140942649,0.006248,0.004662
6251684909,7658626713,0.0625,0.1272
6252142516,8067922846,0.006248,0.004662
6252152975,8257474558,0.006248,0.004662
6252154573,8315960133,0.01874,0.00264
6252131980,8510758764,0.0625,0.0159
6252173953,8550117800,0.03125,0.003731
6252191870,8774297353,0.03125,0.004478
6252244691,10006980108,0.0125,0.001554
6252277611,10487548926,0.0625,0.007767
6252278566,10539469808,0.03125,0.0159
6252279396,10589063513,0.0625,0.02386
