6238340468,5615948510,0.0625,0.03961
6252009114,5629484506,0.00769,0.004662
6252020654,5638258867,0.009369,0.01244
6252008056,5648598326,0.006248,0.002331
6252023131,5652548784,0.03125,0.003109
6252023601,5669782163,0.0625,0.006218
6251994735,5731171520,0.006248,0.008392
6251994475,5747207221,0.006248,0.0318
6252026439,5783928272,0.0125,0.003975
6251480205,5838736555,0.0625,0.06213
6252034706,5919072895,0.006248,0.001554
4297551713,5974839870,0.006248,0.00795
6236432122,5979341649,0.05627,0.02145
6252038379,6019457332,0.006248,0.002392
5440065394,6041489640,0.03748,0.01088
6252039441,6044649938,0.03125,0.02386
5960925264,6056311098,0.125,0.03339
6252040053,6056994640,0.0625,0.006218
6252042334,6121078758,0.006248,0.01157
6252051821,6159061153,0.006248,0.01157
6252054293,6172124897,0.02792,0.02704
6252027972,6196376446,0.006248,0.002796
6252059383,6215607591,0.0,0.0001554
6252060052,6245889315,0.009369,0.002842
6252063782,6321379879,0.006248,0.004349
6252064645,6347693620,0.0125,0.01166
6252065441,6372343230,0.0625,0.007767
6252065740,6373920007,0.04688,0.0636
6239416246,6384948507,0.1875,0.04773
6252068151,6436278910,0.006248,0.003975
6252040153,6449968521,0.006248,0.002796
6252072211,6491746426,0.006248,0.01244
6252072828,6508225907,0.0,0.0001554
6251815474,6676945028,0.006248,0.04773
6252081004,6691068130,0.006248,0.01244
6252081084,6700694237,0.0125,0.001554
5028636792,6722827348,0.125,0.003109
6252082131,6726518019,0.009369,0.01244
6252082845,6734410751,0.006248,0.004662
6252084432,6749099809,0.006248,0.004662
6252064094,6863251272,0.006248,0.0318
5310996749,6901445489,0.0625,0.04791
6252096299,6964207963,0.0125,0.004662
6252096382,6976555956,0.0125,0.004662
6252097319,6989788393,0.00676,0.001972
6252097724,6992578347,0.1694,0.02774
6252099695,7049590986,0.03125,0.01125
6252107086,7213689597,0.0625,0.004662
6252107765,7233047024,0.0,0.0001554
6252112538,7360987549,0.0,0.0001554
6252112958,7379816689,0.009369,0.004662
6252112041,7415189866,0.006248,0.003975
6252115818,7463412883,0.04999,0.005875
6252117782,7534006967,0.03125,0.0159
5658646673,7591614120,0.09375,0.02057
6252123553,7604192637,0.0,0.0001554
6252131803,7845448517,0.03125,0.01125
6252133192,7874097732,0.0625,0.01244
6252133421,7880438747,0.0,0.0001554
4974639465,7936465733,0.0625,0.08569
6252143603,8197174394,0.03125,0.0159
6252146438,8211761671,0.0625,0.04773
6252152926,8257474534,0.006248,0.00544
6252154547,8306388357,0.0,0.0001554
6252154926,8327364687,0.0125,0.001554
6252169967,8412273463,0.0625,0.004662
6252170086,8484764066,0.03125,0.0159
6252174995,8562316072,0.09998,0.02069
1488089419,8599803504,0.0625,0.0159
6252185167,8674009414,0.03125,0.01125
6252193273,8808158478,0.0625,0.1034
6252193230,8809844982,0.0125,0.02863
6252198892,8864250962,0.006248,0.02069
6252199230,8875043358,0.006248,0.004662
6252204848,8977109470,0.0125,0.001554
6252205701,9006488614,0.006248,0.003975
6252205371,9006488638,0.0125,0.001554
6252207278,9058569876,0.03125,0.01125
6238837081,9061656449,0.03125,0.02795
6252155622,9114823258,0.03125,0.01143
6252213470,9239637863,0.0075,0.007767
6252214788,9288072210,0.03125,0.01125
6252217379,9327300165,0.0,0.0001554
4665892165,9684890427,0.125,0.07642
6252237278,9780648866,0.0,0.0001554
6252243574,9973654218,0.04688,0.0636
6252243633,9978709261,0.006248,0.0318
6252244968,10017938176,0.04999,0.005875
6252246950,10044199856,0.006248,0.003975
6252247109,10044199879,0.006248,0.003975
6252250221,10098543194,0.006248,0.003975
6252251418,10111660914,0.006248,0.003975
6252260521,10171033648,0.006248,0.02386
6252262921,10214849423,0.0625,0.007767
6252266490,10237862601,0.006248,0.02386
6252244519,10264940088,0.03125,0.001987
6252267121,10290744839,0.0625,0.02386
6252277611,10487548926,0.0625,0.007767
6252278566,10539469808,0.03125,0.0159
6252281215,10574812905,0.006248,0.02069
